{"pageProps":{"siteDescription":"Description of local dev version","siteTitle":"Local dev version","currentPage":1,"pages":280,"categories":[{"id":"all","title":"All","count":559},{"id":"with-pictures","title":"With pictures or videos","count":41},{"id":"office A","title":"office A","count":18},{"id":"miyata","title":"miyata","count":17},{"id":"office B","title":"office B","count":32},{"id":"recumbent","title":"recumbent","count":108},{"id":"tandem","title":"tandem","count":86},{"id":"wife","title":"wife","count":14},{"id":"son","title":"son","count":2},{"id":"grocery store","title":"grocery store","count":10},{"id":"just for fun","title":"just for fun","count":2},{"id":"Los Angeles","title":"Los Angeles","count":6},{"id":"school","title":"school","count":52},{"id":"horse camp","title":"horse camp","count":2},{"id":"yasha's heaven","title":"yasha's heaven","count":1},{"id":"seattle","title":"seattle","count":14},{"id":"walk","title":"walk","count":1},{"id":"office C","title":"office C","count":9},{"id":"with the kid","title":"with the kid","count":4},{"id":"ToTheEastCost","title":"ToTheEastCost","count":24}],"category":"all","index":[{"title":"Daily ride 2022-06-01 #559","gpx":["track.gpx"],"date":"2022-06-01","hash":["e28dd51c9232887329af1aa84acbed8a5362fab8cde1abe788ace7d17434e8e5"],"id":"20220601","objects":[],"time":42033000,"distance":165394.76399970142,"uphill":565,"pointCount":391,"tags":[],"categories":["all"]},{"title":"Daily ride 2022-05-31 #558","gpx":["track.gpx"],"date":"2022-05-31","hash":["7d3c9a8ae9f39e13fac0c226d038e45904a7f675db4e3dd72bcfbd5a1dc32b75"],"id":"20220531","objects":[],"time":43279000,"distance":167361.72546257536,"uphill":637,"pointCount":409,"tags":[],"categories":["all"]}]},"__N_SSG":true}