{"pageProps":{"siteDescription":"Description of local dev version","siteTitle":"Local dev version","currentPage":1,"pages":280,"categories":[{"id":"all","title":"All","count":560},{"id":"with-pictures","title":"With pictures or videos","count":41},{"id":"office A","title":"office A","count":18},{"id":"miyata","title":"miyata","count":17},{"id":"office B","title":"office B","count":32},{"id":"recumbent","title":"recumbent","count":108},{"id":"tandem","title":"tandem","count":86},{"id":"wife","title":"wife","count":14},{"id":"son","title":"son","count":2},{"id":"grocery store","title":"grocery store","count":10},{"id":"just for fun","title":"just for fun","count":2},{"id":"Los Angeles","title":"Los Angeles","count":6},{"id":"school","title":"school","count":52},{"id":"horse camp","title":"horse camp","count":2},{"id":"yasha's heaven","title":"yasha's heaven","count":1},{"id":"seattle","title":"seattle","count":14},{"id":"walk","title":"walk","count":1},{"id":"office C","title":"office C","count":9},{"id":"with the kid","title":"with the kid","count":4},{"id":"ToTheEastCost","title":"ToTheEastCost","count":24}],"category":"all","index":[{"title":"Daily ride 2022-06-02 #560","gpx":["track.gpx"],"date":"2022-06-02","hash":["f4e26c65360644512796742463038c03e7100244b39c72056095347d7cb45bbe"],"id":"20220602","objects":[],"time":19666000,"distance":61097.4654894713,"uphill":143,"pointCount":180,"tags":[],"categories":["all"]},{"title":"Daily ride 2022-06-01 #559","gpx":["track.gpx"],"date":"2022-06-01","hash":["3121c8ebf870be4b91a5eeb6eed59ad4f05bbf622bf2c53ef95ef941ac42044e"],"id":"20220601","objects":[],"time":46049000,"distance":175935.95571459684,"uphill":587,"pointCount":427,"tags":[],"categories":["all"]}]},"__N_SSG":true}