{"pageProps":{"siteDescription":"Description of local dev version","siteTitle":"Local dev version","currentPage":1,"pages":273,"categories":[{"id":"all","title":"All","count":545},{"id":"with-pictures","title":"With pictures or videos","count":29},{"id":"office A","title":"office A","count":18},{"id":"miyata","title":"miyata","count":17},{"id":"office B","title":"office B","count":32},{"id":"recumbent","title":"recumbent","count":96},{"id":"tandem","title":"tandem","count":86},{"id":"wife","title":"wife","count":14},{"id":"son","title":"son","count":2},{"id":"grocery store","title":"grocery store","count":10},{"id":"just for fun","title":"just for fun","count":2},{"id":"Los Angeles","title":"Los Angeles","count":6},{"id":"school","title":"school","count":52},{"id":"horse camp","title":"horse camp","count":2},{"id":"yasha's heaven","title":"yasha's heaven","count":1},{"id":"seattle","title":"seattle","count":14},{"id":"walk","title":"walk","count":1},{"id":"office C","title":"office C","count":9},{"id":"with the kid","title":"with the kid","count":4},{"id":"ToTheEastCost","title":"ToTheEastCost","count":12}],"category":"all","index":[{"title":"Daily ride 2022-05-18 #545","gpx":["track.gpx"],"date":"2022-05-18","hash":["4afb75662c280ca1465cf51c63953ed65e362cbf302f2f8c38640eebf8645c54"],"id":"20220518","objects":[],"time":22890000,"distance":97010.09445562212,"uphill":260,"pointCount":213,"tags":[],"categories":["all"]},{"title":"Daily ride 2022-05-17 #544","gpx":["track.gpx"],"date":"2022-05-17","hash":["6678a7b7db90c22a64796b7876fb5e606fe807aa3e99ee9521f2b5561e64c8d1"],"id":"20220517","objects":[{"type":"image","img":"20220517-photo0","lat":39.99339173056931,"lng":-104.9593775995904},{"type":"image","img":"20220517-photo1","lat":39.91378603250966,"lng":-104.95933503828138},{"type":"image","img":"20220517-photo2","lat":39.90953809334967,"lng":-104.94038252220061},{"type":"image","img":"20220517-photo3","lat":39.90953809334967,"lng":-104.94038252220061},{"type":"image","img":"20220517-photo4","lat":39.75612682354624,"lng":-104.99027673039612},{"type":"image","img":"20220517-photo5","lat":39.74737379710608,"lng":-104.89985670077517},{"type":"image","img":"20220517-photo6","lat":39.74777327581827,"lng":-104.88630767490972},{"type":"image","img":"20220517-photo7","lat":39.74785082657883,"lng":-104.88639418619074},{"type":"image","img":"20220517-photo8","lat":39.747039722087024,"lng":-104.87897066394524},{"type":"image","img":"20220517-photo9","lat":39.757704961292795,"lng":-104.84365995563076}],"time":43878000,"distance":159658.58424678023,"uphill":380,"pointCount":438,"tags":[],"categories":["all","with-pictures"]}]},"__N_SSG":true}