{"pageProps":{"siteDescription":"Description of local dev version","siteTitle":"Local dev version","currentPage":1,"pages":275,"categories":[{"id":"all","title":"All","count":550},{"id":"with-pictures","title":"With pictures or videos","count":33},{"id":"office A","title":"office A","count":18},{"id":"miyata","title":"miyata","count":17},{"id":"office B","title":"office B","count":32},{"id":"recumbent","title":"recumbent","count":103},{"id":"tandem","title":"tandem","count":86},{"id":"wife","title":"wife","count":14},{"id":"son","title":"son","count":2},{"id":"grocery store","title":"grocery store","count":10},{"id":"just for fun","title":"just for fun","count":2},{"id":"Los Angeles","title":"Los Angeles","count":6},{"id":"school","title":"school","count":52},{"id":"horse camp","title":"horse camp","count":2},{"id":"yasha's heaven","title":"yasha's heaven","count":1},{"id":"seattle","title":"seattle","count":14},{"id":"walk","title":"walk","count":1},{"id":"office C","title":"office C","count":9},{"id":"with the kid","title":"with the kid","count":4},{"id":"ToTheEastCost","title":"ToTheEastCost","count":19}],"category":"all","index":[{"title":"Daily ride 2022-05-23 #550","gpx":["track.gpx"],"date":"2022-05-23","hash":["836b84ec55f8cd98e199e47802f0fc1c21f40fe2885f8b92299d0231a124c53a"],"id":"20220523","objects":[],"time":22621000,"distance":69891.97899596297,"uphill":129,"pointCount":232,"tags":[],"categories":["all"]},{"title":"Daily ride 2022-05-22 #549","gpx":["track.gpx"],"date":"2022-05-22","hash":["4e0404ee11ab24eb68018d6df7b34b1af5d8612069f65a9b4ff9bd8178c0035b"],"id":"20220522","objects":[],"time":47864000,"distance":169977.07834040688,"uphill":341,"pointCount":520,"tags":[],"categories":["all"]}]},"__N_SSG":true}