{"pageProps":{"siteDescription":"Description of local dev version","siteTitle":"Local dev version","currentPage":1,"pages":282,"categories":[{"id":"all","title":"All","count":564},{"id":"with-pictures","title":"With pictures or videos","count":41},{"id":"office A","title":"office A","count":18},{"id":"miyata","title":"miyata","count":17},{"id":"office B","title":"office B","count":32},{"id":"recumbent","title":"recumbent","count":108},{"id":"tandem","title":"tandem","count":86},{"id":"wife","title":"wife","count":14},{"id":"son","title":"son","count":2},{"id":"grocery store","title":"grocery store","count":10},{"id":"just for fun","title":"just for fun","count":2},{"id":"Los Angeles","title":"Los Angeles","count":6},{"id":"school","title":"school","count":52},{"id":"horse camp","title":"horse camp","count":2},{"id":"yasha's heaven","title":"yasha's heaven","count":1},{"id":"seattle","title":"seattle","count":14},{"id":"walk","title":"walk","count":1},{"id":"office C","title":"office C","count":9},{"id":"with the kid","title":"with the kid","count":4},{"id":"ToTheEastCost","title":"ToTheEastCost","count":24}],"category":"all","index":[{"title":"Daily ride 2022-06-07 #564","gpx":["track.gpx"],"date":"2022-06-07","hash":["4f8fe44edf7dcda508022ab7dd949120a0af0d5fee1fc20e79d08f974304bced"],"id":"20220607","objects":[],"time":15173000,"distance":44681.61836591261,"uphill":243,"pointCount":138,"tags":[],"categories":["all"]},{"title":"Daily ride 2022-06-06 #563","gpx":["track.gpx"],"date":"2022-06-06","hash":["2fcfd7077ebcb37017a4be11cda9f2b25ffba8f3e1c6c6bb16c888724181952b"],"id":"20220606","objects":[],"time":52529000,"distance":148641.22576592962,"uphill":1020,"pointCount":480,"tags":[],"categories":["all"]}]},"__N_SSG":true}