{"pageProps":{"siteDescription":"Description of local dev version","siteTitle":"Local dev version","currentPage":1,"pages":504,"categories":[{"id":"all","title":"All","count":1007},{"id":"with-pictures","title":"With pictures or videos","count":53},{"id":"office A","title":"office A","count":18},{"id":"miyata","title":"miyata","count":17},{"id":"office B","title":"office B","count":32},{"id":"recumbent","title":"recumbent","count":122},{"id":"tandem","title":"tandem","count":90},{"id":"wife","title":"wife","count":15},{"id":"son","title":"son","count":2},{"id":"grocery store","title":"grocery store","count":10},{"id":"just for fun","title":"just for fun","count":2},{"id":"Los Angeles","title":"Los Angeles","count":6},{"id":"school","title":"school","count":52},{"id":"horse camp","title":"horse camp","count":2},{"id":"yasha's heaven","title":"yasha's heaven","count":1},{"id":"seattle","title":"seattle","count":14},{"id":"walk","title":"walk","count":1},{"id":"office C","title":"office C","count":9},{"id":"with the kid","title":"with the kid","count":6},{"id":"ToTheEastCoast","title":"ToTheEastCoast","count":38}],"category":"all","index":[{"title":"Daily ride 2024-03-27 #1007","gpx":["track.gpx"],"date":"2024-03-27","hash":["fe6e4f1bea84917378eb9c4f7138dca2c2fabe9a3d206b0671b6e4f82755b0d3"],"id":"20240327","objects":[],"time":40501000,"distance":110049.91198275602,"uphill":1129,"pointCount":523,"tags":[],"categories":["all"]},{"title":"Daily ride 2024-03-26 #1006","gpx":["track.gpx"],"date":"2024-03-26","hash":["a6862f60e6a1491c34ffcb22b2556bd32fa70563b5ae4417b9c924cbbea0e828"],"id":"20240326","objects":[],"time":37043000,"distance":116176.49408991128,"uphill":1580,"pointCount":504,"tags":[],"categories":["all"]}]},"__N_SSG":true}