{"pageProps":{"siteDescription":"Description of local dev version","siteTitle":"Local dev version","currentPage":1,"pages":263,"categories":[{"id":"all","title":"All","count":525},{"id":"with-pictures","title":"With pictures or videos","count":13},{"id":"office A","title":"office A","count":18},{"id":"miyata","title":"miyata","count":17},{"id":"office B","title":"office B","count":32},{"id":"recumbent","title":"recumbent","count":84},{"id":"tandem","title":"tandem","count":84},{"id":"wife","title":"wife","count":14},{"id":"son","title":"son","count":2},{"id":"grocery store","title":"grocery store","count":10},{"id":"just for fun","title":"just for fun","count":2},{"id":"Los Angeles","title":"Los Angeles","count":6},{"id":"school","title":"school","count":51},{"id":"horse camp","title":"horse camp","count":2},{"id":"yasha's heaven","title":"yasha's heaven","count":1},{"id":"seattle","title":"seattle","count":14},{"id":"walk","title":"walk","count":1},{"id":"office C","title":"office C","count":9},{"id":"with the kid","title":"with the kid","count":4}],"category":"all","index":[{"title":"Daily ride 2022-04-28 #525","gpx":["track.gpx"],"date":"2022-04-28","hash":["cad1d3817fee8598582f61559e876503d324a3f53714d4615ba89669816d1fd2"],"id":"20220428","objects":[],"time":5635000,"distance":18673.385568156922,"uphill":154,"pointCount":52,"tags":[],"categories":["all"]},{"title":"Daily ride 2022-04-27 #524","gpx":["track.gpx"],"date":"2022-04-27","hash":["fc1f9162034bde0eede0fdcda09c55c560f3b0a148ca353e85ce294b7ee00f98"],"id":"20220427","objects":[],"time":4580000,"distance":14560.875056560999,"uphill":134,"pointCount":41,"tags":[],"categories":["all"]}]},"__N_SSG":true}