{"pageProps":{"siteDescription":"Description of local dev version","siteTitle":"Local dev version","currentPage":1,"pages":266,"categories":[{"id":"all","title":"All","count":532},{"id":"with-pictures","title":"With pictures or videos","count":16},{"id":"office A","title":"office A","count":18},{"id":"miyata","title":"miyata","count":17},{"id":"office B","title":"office B","count":32},{"id":"recumbent","title":"recumbent","count":85},{"id":"tandem","title":"tandem","count":86},{"id":"wife","title":"wife","count":14},{"id":"son","title":"son","count":2},{"id":"grocery store","title":"grocery store","count":10},{"id":"just for fun","title":"just for fun","count":2},{"id":"Los Angeles","title":"Los Angeles","count":6},{"id":"school","title":"school","count":52},{"id":"horse camp","title":"horse camp","count":2},{"id":"yasha's heaven","title":"yasha's heaven","count":1},{"id":"seattle","title":"seattle","count":14},{"id":"walk","title":"walk","count":1},{"id":"office C","title":"office C","count":9},{"id":"with the kid","title":"with the kid","count":4},{"id":"ToTheEastCost","title":"ToTheEastCost","count":1}],"category":"all","index":[{"title":"Daily ride 2022-05-05 #532","gpx":["track.gpx"],"date":"2022-05-05","hash":["5556aa5958accb883469a3471bd1fa7f11d202c69505f5fbc7fbd05da6e67fe4"],"id":"20220505","objects":[],"time":51184000,"distance":104500.68126188731,"uphill":2367,"pointCount":465,"tags":[],"categories":["all"]},{"title":"Daily ride 2022-05-04 #531","gpx":["track.gpx"],"date":"2022-05-04","hash":["c197c71558e266de2af2fc0f63a133079996885da16da3715e1c6c7314d3433d"],"id":"20220504","objects":[{"type":"image","img":"20220504-photo0","lat":38.11219846066216,"lng":-121.69767610347462},{"type":"image","img":"20220504-photo1","lat":38.112732077395926,"lng":-121.69749393479503},{"type":"image","img":"20220504-photo2","lat":38.12300002568002,"lng":-121.6900495421813},{"type":"image","img":"20220504-photo3","lat":38.242141644947374,"lng":-121.51590702518793},{"type":"image","img":"20220504-photo4","lat":38.35744980455554,"lng":-120.93841717594418},{"type":"image","img":"20220504-photo5","lat":38.42280073416171,"lng":-120.64445256199278},{"type":"image","img":"20220504-photo6","lat":38.42277123193061,"lng":-120.64439386657708}],"time":42599000,"distance":121144.79786510556,"uphill":871,"pointCount":383,"tags":[],"categories":["all","with-pictures"]}]},"__N_SSG":true}