{"pageProps":{"siteDescription":"Description of local dev version","siteTitle":"Local dev version","currentPage":1,"pages":267,"categories":[{"id":"all","title":"All","count":534},{"id":"with-pictures","title":"With pictures or videos","count":18},{"id":"office A","title":"office A","count":18},{"id":"miyata","title":"miyata","count":17},{"id":"office B","title":"office B","count":32},{"id":"recumbent","title":"recumbent","count":87},{"id":"tandem","title":"tandem","count":86},{"id":"wife","title":"wife","count":14},{"id":"son","title":"son","count":2},{"id":"grocery store","title":"grocery store","count":10},{"id":"just for fun","title":"just for fun","count":2},{"id":"Los Angeles","title":"Los Angeles","count":6},{"id":"school","title":"school","count":52},{"id":"horse camp","title":"horse camp","count":2},{"id":"yasha's heaven","title":"yasha's heaven","count":1},{"id":"seattle","title":"seattle","count":14},{"id":"walk","title":"walk","count":1},{"id":"office C","title":"office C","count":9},{"id":"with the kid","title":"with the kid","count":4},{"id":"ToTheEastCost","title":"ToTheEastCost","count":1},{"id":"ToTheEastCoat","title":"ToTheEastCoat","count":2}],"category":"all","index":[{"title":"Daily ride 2022-05-07 #534","gpx":["track.gpx"],"date":"2022-05-07","hash":["496c0c53024784793e19c11bb8b6f9e84f3a4ab18c83598c11330b776aa73d7f"],"id":"20220507","objects":[],"time":22548000,"distance":87595.1672054275,"uphill":575,"pointCount":219,"tags":[],"categories":["all"]},{"title":"Daily ride 2022-05-06 #533","description":"Day","tags":["recumbent","ToTheEastCoat"],"gpx":["track.gpx"],"date":"2022-05-06","hash":["8281f4ab489d98c313385a85f46e80ebc6482f931199407f9945a7034218accd"],"id":"20220506","objects":[{"type":"image","img":"20220506-photo0","lat":38.76622120382797,"lng":-119.84526564997338},{"type":"image","img":"20220506-photo1","lat":38.766218899288155,"lng":-119.84530910584873},{"type":"image","img":"20220506-photo10","lat":39.27450735706977,"lng":-118.33212748516125},{"type":"image","img":"20220506-photo11","lat":39.290379247095416,"lng":-118.04746206657254},{"type":"image","img":"20220506-photo2","lat":38.91192727127819,"lng":-119.77916814402337},{"type":"image","img":"20220506-photo3","lat":38.96140262890832,"lng":-119.77851555536988},{"type":"image","img":"20220506-photo4","lat":39.371662744542775,"lng":-119.34642116170345},{"type":"image","img":"20220506-photo5","lat":39.371662744542775,"lng":-119.34642116170345},{"type":"image","img":"20220506-photo6","lat":39.44472216679361,"lng":-119.09077610904792},{"type":"image","img":"20220506-photo7","lat":39.45812504483694,"lng":-119.08259909469025},{"type":"image","img":"20220506-photo8","lat":39.45684039525988,"lng":-118.67699073419114},{"type":"image","img":"20220506-photo9","lat":39.297877806758216,"lng":-118.47077884037515}],"time":44910000,"distance":222641.2416935819,"uphill":679,"pointCount":407,"categories":["all","recumbent","ToTheEastCoat","with-pictures"]}]},"__N_SSG":true}