{"pageProps":{"siteDescription":"Description of local dev version","siteTitle":"Local dev version","currentPage":1,"pages":283,"categories":[{"id":"all","title":"All","count":566},{"id":"with-pictures","title":"With pictures or videos","count":41},{"id":"office A","title":"office A","count":18},{"id":"miyata","title":"miyata","count":17},{"id":"office B","title":"office B","count":32},{"id":"recumbent","title":"recumbent","count":108},{"id":"tandem","title":"tandem","count":86},{"id":"wife","title":"wife","count":14},{"id":"son","title":"son","count":2},{"id":"grocery store","title":"grocery store","count":10},{"id":"just for fun","title":"just for fun","count":2},{"id":"Los Angeles","title":"Los Angeles","count":6},{"id":"school","title":"school","count":52},{"id":"horse camp","title":"horse camp","count":2},{"id":"yasha's heaven","title":"yasha's heaven","count":1},{"id":"seattle","title":"seattle","count":14},{"id":"walk","title":"walk","count":1},{"id":"office C","title":"office C","count":9},{"id":"with the kid","title":"with the kid","count":4},{"id":"ToTheEastCost","title":"ToTheEastCost","count":24}],"category":"all","index":[{"title":"Daily ride 2022-06-10 #566","gpx":["track.gpx"],"date":"2022-06-10","hash":["60c8389cdd5881629c147dbb01dba4417ebe16efd90ca5b69dbd26d80d3b9b9d"],"id":"20220610","objects":[],"time":20956000,"distance":52093.05387144306,"uphill":179,"pointCount":203,"tags":[],"categories":["all"]},{"title":"Daily ride 2022-06-08 #565","gpx":["track.gpx"],"date":"2022-06-08","hash":["e8ad2ce910d379e7d98ea9f475a7d159fb6aeeaaa3ef796ca8216aba36a6852a"],"id":"20220608","objects":[],"time":44522000,"distance":129477.56411833716,"uphill":503,"pointCount":422,"tags":[],"categories":["all"]}]},"__N_SSG":true}