{"pageProps":{"siteDescription":"Description of local dev version","siteTitle":"Local dev version","currentPage":1,"pages":275,"categories":[{"id":"all","title":"All","count":549},{"id":"with-pictures","title":"With pictures or videos","count":33},{"id":"office A","title":"office A","count":18},{"id":"miyata","title":"miyata","count":17},{"id":"office B","title":"office B","count":32},{"id":"recumbent","title":"recumbent","count":103},{"id":"tandem","title":"tandem","count":86},{"id":"wife","title":"wife","count":14},{"id":"son","title":"son","count":2},{"id":"grocery store","title":"grocery store","count":10},{"id":"just for fun","title":"just for fun","count":2},{"id":"Los Angeles","title":"Los Angeles","count":6},{"id":"school","title":"school","count":52},{"id":"horse camp","title":"horse camp","count":2},{"id":"yasha's heaven","title":"yasha's heaven","count":1},{"id":"seattle","title":"seattle","count":14},{"id":"walk","title":"walk","count":1},{"id":"office C","title":"office C","count":9},{"id":"with the kid","title":"with the kid","count":4},{"id":"ToTheEastCost","title":"ToTheEastCost","count":19}],"category":"all","index":[{"title":"Daily ride 2022-05-22 #549","gpx":["track.gpx"],"date":"2022-05-22","hash":["e945a9b165dc7b79fb92aeb875f12cc04ee5f4ced34768dd3f7bd1ae6fa265be"],"id":"20220522","objects":[],"time":12069000,"distance":44419.43317407539,"uphill":101,"pointCount":107,"tags":[],"categories":["all"]},{"title":"Daily ride 2022-05-21 #548","description":"Day 19. Nebraska. Motel. Reached the capital of Nebraska.","tags":["recumbent","ToTheEastCost"],"gpx":["track.gpx"],"date":"2022-05-21","hash":["c414ef7a264f8611228235c807e49831f9b375ecd026b6ee79d61f4c0d644482"],"id":"20220521","objects":[{"type":"image","img":"20220521-photo0","lat":40.62301680752767,"lng":-97.8111080480815},{"type":"image","img":"20220521-photo1","lat":40.65464006201663,"lng":-97.19546581882693},{"type":"image","img":"20220521-photo2","lat":40.78505812778752,"lng":-96.73370492162464},{"type":"image","img":"20220521-photo3","lat":40.78505812778752,"lng":-96.73370492162464},{"type":"image","img":"20220521-photo4","lat":40.809336919374054,"lng":-96.7010427633096},{"type":"image","img":"20220521-photo5","lat":40.81592893649865,"lng":-96.70153462417147},{"type":"image","img":"20220521-photo6","lat":40.815915735574485,"lng":-96.70172638659739},{"type":"image","img":"20220521-photo7","lat":40.85825910127385,"lng":-96.64325064552372},{"type":"image","img":"20220521-photo8","lat":40.85825910127385,"lng":-96.64325064552372},{"type":"image","img":"20220521-photo9","lat":40.85825910127385,"lng":-96.64325064552372}],"time":44989000,"distance":176038.40616243187,"uphill":509,"pointCount":439,"categories":["all","recumbent","ToTheEastCost","with-pictures"]}]},"__N_SSG":true}