{"pageProps":{"siteDescription":"Description of local dev version","siteTitle":"Local dev version","currentPage":1,"pages":268,"categories":[{"id":"all","title":"All","count":536},{"id":"with-pictures","title":"With pictures or videos","count":20},{"id":"office A","title":"office A","count":18},{"id":"miyata","title":"miyata","count":17},{"id":"office B","title":"office B","count":32},{"id":"recumbent","title":"recumbent","count":89},{"id":"tandem","title":"tandem","count":86},{"id":"wife","title":"wife","count":14},{"id":"son","title":"son","count":2},{"id":"grocery store","title":"grocery store","count":10},{"id":"just for fun","title":"just for fun","count":2},{"id":"Los Angeles","title":"Los Angeles","count":6},{"id":"school","title":"school","count":52},{"id":"horse camp","title":"horse camp","count":2},{"id":"yasha's heaven","title":"yasha's heaven","count":1},{"id":"seattle","title":"seattle","count":14},{"id":"walk","title":"walk","count":1},{"id":"office C","title":"office C","count":9},{"id":"with the kid","title":"with the kid","count":4},{"id":"ToTheEastCost","title":"ToTheEastCost","count":5}],"category":"all","index":[{"title":"Daily ride 2022-05-09 #536","gpx":["track.gpx"],"date":"2022-05-09","hash":["17b03983c0453e8664f775ee0996e7fca6a554b0d303f9df45532ee7d0a8bb6"],"id":"20220509","objects":[],"time":6032000,"distance":16854.69152518149,"uphill":77,"pointCount":51,"tags":[],"categories":["all"]},{"title":"Daily ride 2022-05-08 #535","description":"Day 6.","tags":["recumbent","ToTheEastCost"],"gpx":["track.gpx"],"date":"2022-05-08","hash":["6eedd4c2fe5124550842c20a90f490364db4c2008edf0f8711cdca5036077244"],"id":"20220508","objects":[{"type":"image","img":"20220508-photo0","lat":39.48397569627091,"lng":-116.59221266554695},{"type":"image","img":"20220508-photo1","lat":39.4839744826704,"lng":-116.592145694096},{"type":"image","img":"20220508-photo10","lat":39.39733590006369,"lng":-115.46833451927174},{"type":"image","img":"20220508-photo11","lat":39.42846787793331,"lng":-115.18873130714886},{"type":"image","img":"20220508-photo12","lat":39.24625047426761,"lng":-114.8690824138342},{"type":"image","img":"20220508-photo13","lat":39.24621484894936,"lng":-114.86906043752128},{"type":"image","img":"20220508-photo2","lat":39.4839744826704,"lng":-116.592145694096},{"type":"image","img":"20220508-photo3","lat":39.57330374755571,"lng":-116.07809877605197},{"type":"image","img":"20220508-photo4","lat":39.555280061343964,"lng":-115.99568622612269},{"type":"image","img":"20220508-photo5","lat":39.512677786713354,"lng":-115.9610757907597},{"type":"image","img":"20220508-photo6","lat":39.512677786713354,"lng":-115.9610757907597},{"type":"image","img":"20220508-photo7","lat":39.51192306765482,"lng":-115.96090267677232},{"type":"image","img":"20220508-photo8","lat":39.51192306765482,"lng":-115.96090267677232},{"type":"image","img":"20220508-photo9","lat":39.4532241370714,"lng":-115.93602146200973}],"time":43697000,"distance":184268.7071672844,"uphill":1171,"pointCount":412,"categories":["all","recumbent","ToTheEastCost","with-pictures"]}]},"__N_SSG":true}