{"pageProps":{"siteDescription":"Description of local dev version","siteTitle":"Local dev version","currentPage":1,"pages":269,"categories":[{"id":"all","title":"All","count":538},{"id":"with-pictures","title":"With pictures or videos","count":22},{"id":"office A","title":"office A","count":18},{"id":"miyata","title":"miyata","count":17},{"id":"office B","title":"office B","count":32},{"id":"recumbent","title":"recumbent","count":89},{"id":"tandem","title":"tandem","count":86},{"id":"wife","title":"wife","count":14},{"id":"son","title":"son","count":2},{"id":"grocery store","title":"grocery store","count":10},{"id":"just for fun","title":"just for fun","count":2},{"id":"Los Angeles","title":"Los Angeles","count":6},{"id":"school","title":"school","count":52},{"id":"horse camp","title":"horse camp","count":2},{"id":"yasha's heaven","title":"yasha's heaven","count":1},{"id":"seattle","title":"seattle","count":14},{"id":"walk","title":"walk","count":1},{"id":"office C","title":"office C","count":9},{"id":"with the kid","title":"with the kid","count":4},{"id":"ToTheEastCost","title":"ToTheEastCost","count":5}],"category":"all","index":[{"title":"Daily ride 2022-05-11 #538","gpx":["track.gpx"],"date":"2022-05-11","hash":["f3f8e20dec7c8bd6da82ae03de1ecb1cd35e1de906030b7de4270f223fa29edf"],"id":"20220511","objects":[],"time":5429000,"distance":11994.506885410708,"uphill":303,"pointCount":49,"tags":[],"categories":["all"]},{"title":"Daily ride 2022-05-10 #537","gpx":["track.gpx"],"date":"2022-05-10","hash":["2c98fe470aca9ee5e6de46a75674bad582a59314b4ec718c5b269663308fae34"],"id":"20220510","objects":[{"type":"image","img":"20220510-photo0","lat":39.06414017117228,"lng":-113.44537416159565},{"type":"image","img":"20220510-photo1","lat":39.06414017117228,"lng":-113.44537416159565},{"type":"image","img":"20220510-photo10","lat":40.04181367935277,"lng":-111.9583772513867},{"type":"image","img":"20220510-photo11","lat":40.04181367935277,"lng":-111.9583772513867},{"type":"image","img":"20220510-photo12","lat":40.04846727023196,"lng":-111.95817220965534},{"type":"image","img":"20220510-photo13","lat":40.09541742278828,"lng":-111.95894110805077},{"type":"image","img":"20220510-photo14","lat":40.130420941982145,"lng":-111.95301343250219},{"type":"image","img":"20220510-photo2","lat":39.03301397174212,"lng":-113.3866493446045},{"type":"image","img":"20220510-photo3","lat":39.02678266157665,"lng":-113.34742455086275},{"type":"image","img":"20220510-photo4","lat":39.14876156819698,"lng":-113.07173444247168},{"type":"image","img":"20220510-photo5","lat":39.33080742866725,"lng":-112.69704949619648},{"type":"image","img":"20220510-photo6","lat":39.35215842571382,"lng":-112.56687255128011},{"type":"image","img":"20220510-photo7","lat":39.36749723477763,"lng":-112.5445185427777},{"type":"image","img":"20220510-photo8","lat":39.37129921817389,"lng":-112.53912259328935},{"type":"image","img":"20220510-photo9","lat":39.94331247466147,"lng":-112.14342017556983}],"time":54620000,"distance":244759.88784088087,"uphill":659,"pointCount":562,"tags":[],"categories":["all","with-pictures"]}]},"__N_SSG":true}