{"pageProps":{"siteDescription":"Description of local dev version","siteTitle":"Local dev version","currentPage":1,"pages":284,"categories":[{"id":"all","title":"All","count":568},{"id":"with-pictures","title":"With pictures or videos","count":49},{"id":"office A","title":"office A","count":18},{"id":"miyata","title":"miyata","count":17},{"id":"office B","title":"office B","count":32},{"id":"recumbent","title":"recumbent","count":122},{"id":"tandem","title":"tandem","count":86},{"id":"wife","title":"wife","count":14},{"id":"son","title":"son","count":2},{"id":"grocery store","title":"grocery store","count":10},{"id":"just for fun","title":"just for fun","count":2},{"id":"Los Angeles","title":"Los Angeles","count":6},{"id":"school","title":"school","count":52},{"id":"horse camp","title":"horse camp","count":2},{"id":"yasha's heaven","title":"yasha's heaven","count":1},{"id":"seattle","title":"seattle","count":14},{"id":"walk","title":"walk","count":1},{"id":"office C","title":"office C","count":9},{"id":"with the kid","title":"with the kid","count":4},{"id":"ToTheEastCoast","title":"ToTheEastCoast","count":38}],"category":"all","index":[{"title":"Daily ride 2022-06-13 #568","gpx":["track.gpx"],"date":"2022-06-13","hash":["476b1632203d21bf7895480764f7da9583a4134413d0541fed4eb5e6d4c6ef8a"],"id":"20220613","objects":[],"time":1950000,"distance":6416.188734613046,"uphill":28,"pointCount":19,"tags":[],"categories":["all"]},{"title":"Daily ride 2022-06-10 #567","description":"Day 39. New York. Motel. The End.","tags":["recumbent","ToTheEastCoast"],"gpx":["track.gpx"],"date":"2022-06-10","hash":["60c8389cdd5881629c147dbb01dba4417ebe16efd90ca5b69dbd26d80d3b9b9d"],"id":"20220610","objects":[{"type":"image","img":"20220610-photo0","timestamp":1654851572000,"lat":41.41641666666666,"lng":-73.39680555555556},{"type":"image","img":"20220610-photo1","timestamp":1654866930000,"lat":41.08532777777778,"lng":-73.39336944444445},{"type":"image","img":"20220610-photo2","timestamp":1654866989000,"lat":41.085211111111114,"lng":-73.39266944444445},{"type":"image","img":"20220610-photo3","timestamp":1654867023000,"lat":41.085211111111114,"lng":-73.39266944444445},{"type":"image","img":"20220610-photo4","timestamp":1654867032000,"lat":41.085211111111114,"lng":-73.39266944444445},{"type":"image","img":"20220610-photo5","timestamp":1654872732000,"lat":41.09275,"lng":-73.45155833333334},{"type":"image","img":"20220610-photo6","timestamp":1654876321000,"lat":41.09274166666667,"lng":-73.45155555555556}],"time":20956000,"distance":52093.05387144306,"uphill":179,"pointCount":203,"categories":["all","recumbent","ToTheEastCoast","with-pictures"]}]},"__N_SSG":true}