{"pageProps":{"siteDescription":"Description of local dev version","siteTitle":"Local dev version","currentPage":1,"pages":262,"categories":[{"id":"all","title":"All","count":523},{"id":"office A","title":"office A","count":18},{"id":"miyata","title":"miyata","count":17},{"id":"office B","title":"office B","count":30},{"id":"recumbent","title":"recumbent","count":82},{"id":"tandem","title":"tandem","count":75},{"id":"wife","title":"wife","count":14},{"id":"son","title":"son","count":2},{"id":"grocery store","title":"grocery store","count":10},{"id":"just for fun","title":"just for fun","count":2},{"id":"Los Angeles","title":"Los Angeles","count":6},{"id":"school","title":"school","count":51},{"id":"horse camp","title":"horse camp","count":2},{"id":"yasha's heaven","title":"yasha's heaven","count":1},{"id":"seattle","title":"seattle","count":14},{"id":"walk","title":"walk","count":1},{"id":"office C","title":"office C","count":9},{"id":"with the kid","title":"with the kid","count":4}],"category":"all","index":[{"title":"Daily ride 2022-04-26 #523","gpx":["track.gpx"],"date":"2022-04-26","hash":["655d8ce9ebf1c8e8f3b359b53a019f68c1fbfd5a4e78d9f34f806ab2e19db437"],"id":"20220426","time":2390000,"distance":6658.234452999162,"uphill":49,"tags":[],"categories":["all"]},{"title":"Daily ride 2022-04-25 #522","gpx":["track.gpx"],"date":"2022-04-25","hash":["f173b1b17cf6a26f784dbf4c206f905236b5568e71d90af997bbc914b8d1c422"],"id":"20220425","time":23253000,"distance":16106.26264254148,"uphill":1104,"tags":[],"categories":["all"]}]},"__N_SSG":true}