{"pageProps":{"siteDescription":"Description of local dev version","siteTitle":"Local dev version","currentPage":1,"pages":277,"categories":[{"id":"all","title":"All","count":553},{"id":"with-pictures","title":"With pictures or videos","count":37},{"id":"office A","title":"office A","count":18},{"id":"miyata","title":"miyata","count":17},{"id":"office B","title":"office B","count":32},{"id":"recumbent","title":"recumbent","count":107},{"id":"tandem","title":"tandem","count":86},{"id":"wife","title":"wife","count":14},{"id":"son","title":"son","count":2},{"id":"grocery store","title":"grocery store","count":10},{"id":"just for fun","title":"just for fun","count":2},{"id":"Los Angeles","title":"Los Angeles","count":6},{"id":"school","title":"school","count":52},{"id":"horse camp","title":"horse camp","count":2},{"id":"yasha's heaven","title":"yasha's heaven","count":1},{"id":"seattle","title":"seattle","count":14},{"id":"walk","title":"walk","count":1},{"id":"office C","title":"office C","count":9},{"id":"with the kid","title":"with the kid","count":4},{"id":"ToTheEastCost","title":"ToTheEastCost","count":23}],"category":"all","index":[{"title":"Daily ride 2022-05-26 #553","gpx":["track.gpx"],"date":"2022-05-26","hash":["d33cfa0607b683f576ab043fb504a26ed93a34c38edb98c8e7e1ccef0b478ca0"],"id":"20220526","objects":[],"time":26560000,"distance":94457.48087653663,"uphill":684,"pointCount":259,"tags":[],"categories":["all"]},{"title":"Daily ride 2022-05-25 #552","description":"Day 24. Iowa. Motel. Iowa is the state of hills.","tags":["recumbent","ToTheEastCost"],"gpx":["track.gpx"],"date":"2022-05-25","hash":["b97cf9276e990a28e484bbb32ef1299e78b5edcdd6d697ea1f5650c8e1f39cca"],"id":"20220525","objects":[{"type":"image","img":"20220525-photo0","lat":41.60570475479627,"lng":-91.4140485510094},{"type":"image","img":"20220525-photo1","lat":41.60570475479627,"lng":-91.4140485510094},{"type":"image","img":"20220525-photo2","lat":41.60575969375379,"lng":-91.39638516292979},{"type":"image","img":"20220525-photo3","lat":41.60244635028399,"lng":-91.38118516714496},{"type":"image","img":"20220525-photo4","lat":41.596341055028795,"lng":-90.97173422614411},{"type":"image","img":"20220525-photo5","lat":41.596583179961925,"lng":-90.80755780634769},{"type":"image","img":"20220525-photo6","lat":41.596583179961925,"lng":-90.80755780634769},{"type":"image","img":"20220525-photo7","lat":41.596418556301536,"lng":-90.74911529732472},{"type":"image","img":"20220525-photo8","lat":41.5744055286559,"lng":-90.5908076135299},{"type":"image","img":"20220525-photo9","lat":41.57914746836543,"lng":-90.59058539296889}],"time":42302000,"distance":151249.20039304259,"uphill":761,"pointCount":370,"categories":["all","recumbent","ToTheEastCost","with-pictures"]}]},"__N_SSG":true}