{"pageProps":{"siteDescription":"Description of local dev version","siteTitle":"Local dev version","currentPage":1,"pages":265,"categories":[{"id":"all","title":"All","count":530},{"id":"with-pictures","title":"With pictures or videos","count":15},{"id":"office A","title":"office A","count":18},{"id":"miyata","title":"miyata","count":17},{"id":"office B","title":"office B","count":32},{"id":"recumbent","title":"recumbent","count":84},{"id":"tandem","title":"tandem","count":86},{"id":"wife","title":"wife","count":14},{"id":"son","title":"son","count":2},{"id":"grocery store","title":"grocery store","count":10},{"id":"just for fun","title":"just for fun","count":2},{"id":"Los Angeles","title":"Los Angeles","count":6},{"id":"school","title":"school","count":52},{"id":"horse camp","title":"horse camp","count":2},{"id":"yasha's heaven","title":"yasha's heaven","count":1},{"id":"seattle","title":"seattle","count":14},{"id":"walk","title":"walk","count":1},{"id":"office C","title":"office C","count":9},{"id":"with the kid","title":"with the kid","count":4}],"category":"all","index":[{"title":"Daily ride 2022-05-03 #530","gpx":["track.gpx"],"date":"2022-05-03","hash":["cc9f3718781ecc1dbc5fa3aad773585b0edbf527243ad6a393ec2f11a676ced8"],"id":"20220503","objects":[{"type":"image","img":"20220503-photo0","lat":37.32655198159702,"lng":-121.97743644667386},{"type":"image","img":"20220503-photo1","lat":37.3844365821573,"lng":-121.96870084624217},{"type":"image","img":"20220503-photo10","lat":37.529683488804245,"lng":-121.95845314254139},{"type":"image","img":"20220503-photo11","lat":37.575011682849,"lng":-121.96993674424775},{"type":"image","img":"20220503-photo12","lat":37.68064343076721,"lng":-121.90590708289234},{"type":"image","img":"20220503-photo13","lat":37.68984813189514,"lng":-121.90301431283022},{"type":"image","img":"20220503-photo14","lat":38.019325231977284,"lng":-121.98759290346787},{"type":"image","img":"20220503-photo15","lat":38.02968415423799,"lng":-121.75151321037698},{"type":"image","img":"20220503-photo16","lat":38.02968415423799,"lng":-121.75151321037698},{"type":"image","img":"20220503-photo2","lat":37.3844365821573,"lng":-121.96870084624217},{"type":"image","img":"20220503-photo3","lat":37.3844365821573,"lng":-121.96870084624217},{"type":"image","img":"20220503-photo4","lat":37.388523084937475,"lng":-121.96874339376707},{"type":"image","img":"20220503-photo5","lat":37.388523084937475,"lng":-121.96874339376707},{"type":"image","img":"20220503-photo6","lat":37.40046506323424,"lng":-121.97042510722981},{"type":"image","img":"20220503-photo7","lat":37.40046506323424,"lng":-121.97042510722981},{"type":"image","img":"20220503-photo8","lat":37.4035596444369,"lng":-121.97323830089658},{"type":"image","img":"20220503-photo9","lat":37.43313340514647,"lng":-121.9270193168192}],"time":40029000,"distance":140166.47742667835,"uphill":391,"pointCount":371,"tags":[],"categories":["all","with-pictures"]},{"title":"Daily ride 2022-05-02 #529","gpx":["track.gpx"],"date":"2022-05-02","hash":["ce475926a185440e88e0ba1649d053ed4ef68d118d58e83cda2667e1e3cb921b"],"id":"20220502","objects":[],"time":1911000,"distance":8215.394203118687,"uphill":0,"pointCount":22,"tags":[],"categories":["all"]}]},"__N_SSG":true}