{"pageProps":{"siteDescription":"Non-moderated collection of my bike and walking tracks which are updated every day automatically. More description of work principle you can find [here](https://github.com/vasyaod/my-trips-viewer/blob/master/how-my-tracks-works.md)","siteTitle":"All My Bike Tracks","currentPage":1,"pages":25,"categories":[{"id":"all","title":"All","count":1223},{"id":"with-pictures","title":"With pictures or videos","count":53},{"id":"office A","title":"office A","count":18},{"id":"miyata","title":"miyata","count":17},{"id":"office B","title":"office B","count":32},{"id":"recumbent","title":"recumbent","count":122},{"id":"tandem","title":"tandem","count":90},{"id":"wife","title":"wife","count":15},{"id":"son","title":"son","count":2},{"id":"grocery store","title":"grocery store","count":10},{"id":"just for fun","title":"just for fun","count":2},{"id":"Los Angeles","title":"Los Angeles","count":6},{"id":"school","title":"school","count":52},{"id":"horse camp","title":"horse camp","count":2},{"id":"yasha's heaven","title":"yasha's heaven","count":1},{"id":"seattle","title":"seattle","count":14},{"id":"walk","title":"walk","count":1},{"id":"office C","title":"office C","count":9},{"id":"with the kid","title":"with the kid","count":6},{"id":"ToTheEastCoast","title":"ToTheEastCoast","count":38}],"category":"all","index":[{"title":"Daily ride 2024-12-10 #1223","gpx":["track.gpx"],"date":"2024-12-10","hash":["7efe1cbf768663020090d47bc43c65447b8b1ea12b6e0ce0be6fe8978d0b1580"],"id":"20241210","objects":[],"time":12279000,"distance":25283.831151939994,"uphill":527,"pointCount":165,"tags":[],"categories":["all"]},{"title":"Daily ride 2024-12-09 #1222","gpx":["track.gpx"],"date":"2024-12-09","hash":["20ca33cc6b31607111c7f384afe12dc184044e3f54fa313f69dd4dd56dcb71bf"],"id":"20241209","objects":[],"time":30244000,"distance":72753.05057026572,"uphill":1708,"pointCount":412,"tags":[],"categories":["all"]},{"title":"Daily ride 2024-12-08 #1221","gpx":["track.gpx"],"date":"2024-12-08","hash":["dd47d39d98a40bf75fcbb67fa3c2735c706e908e56a68c075303ddd9339971b"],"id":"20241208","objects":[],"time":34786000,"distance":78895.6016893282,"uphill":1218,"pointCount":432,"tags":[],"categories":["all"]},{"title":"Daily ride 2024-12-07 #1220","gpx":["track.gpx"],"date":"2024-12-07","hash":["1be0ac07bd70ca9ff5e0fe756547290a16ce719661ae91de720212612cba678e"],"id":"20241207","objects":[],"time":35012000,"distance":85458.20702317226,"uphill":1466,"pointCount":418,"tags":[],"categories":["all"]},{"title":"Daily ride 2024-12-06 #1219","gpx":["track.gpx"],"date":"2024-12-06","hash":["b3c30540b4f761c6914c9b5aba17d562bdebbe5bc0f21ff14e8c04b8606bad8"],"id":"20241206","objects":[],"time":37724000,"distance":82291.15219187365,"uphill":1420,"pointCount":454,"tags":[],"categories":["all"]},{"title":"Daily ride 2024-12-05 #1218","gpx":["track.gpx"],"date":"2024-12-05","hash":["2cb72ad97ae0da7387bbdb55882ce5ab2f017547e3f51a1f98bb95da13310902"],"id":"20241205","objects":[],"time":35474000,"distance":87178.93338610532,"uphill":1066,"pointCount":479,"tags":[],"categories":["all"]},{"title":"Daily ride 2024-12-04 #1217","gpx":["track.gpx"],"date":"2024-12-04","hash":["f62574187c62c72fdedb23df9e5a4c293d890c84b89215d25c6c8fab364b17de"],"id":"20241204","objects":[],"time":35696000,"distance":85436.82615170721,"uphill":1743,"pointCount":459,"tags":[],"categories":["all"]},{"title":"Daily ride 2024-12-03 #1216","gpx":["track.gpx"],"date":"2024-12-03","hash":["bf66160be08b8b044983f8b23b5f2b0b3023b0201b16756184810e2de7bd864d"],"id":"20241203","objects":[],"time":38443000,"distance":72174.24190605666,"uphill":2111,"pointCount":435,"tags":[],"categories":["all"]},{"title":"Daily ride 2024-12-02 #1215","gpx":["track.gpx"],"date":"2024-12-02","hash":["f78bc61c98f08542137e95d36973b032c48812f31046c0aaea3d027b3a7e8d20"],"id":"20241202","objects":[],"time":34657000,"distance":78591.85750819658,"uphill":1539,"pointCount":446,"tags":[],"categories":["all"]},{"title":"Daily ride 2024-12-01 #1214","gpx":["track.gpx"],"date":"2024-12-01","hash":["f61494d3e981ba0dce3cc78ded4573dbb5e2e09177ae1de82fcd8111f4ba6464"],"id":"20241201","objects":[],"time":38515000,"distance":95619.81503360401,"uphill":2205,"pointCount":514,"tags":[],"categories":["all"]},{"title":"Daily ride 2024-11-30 #1213","gpx":["track.gpx"],"date":"2024-11-30","hash":["d8f25bbace3a70828b940fbb3e223f4b55661e8e27a9301d159ee6f89561f94"],"id":"20241130","objects":[],"time":36354000,"distance":85932.05933997342,"uphill":1276,"pointCount":457,"tags":[],"categories":["all"]},{"title":"Daily ride 2024-11-29 #1212","gpx":["track.gpx"],"date":"2024-11-29","hash":["8e53cf5b033c3540fe765e22cb05bf8c4c919677779d5e9cf10c1978784eb488"],"id":"20241129","objects":[],"time":38268000,"distance":111753.74918221931,"uphill":865,"pointCount":512,"tags":[],"categories":["all"]},{"title":"Daily ride 2024-11-28 #1211","gpx":["track.gpx"],"date":"2024-11-28","hash":["9336a9f34a497dfab4a4dca5327df4949e67f48af04fe204410fc2fc7688c802"],"id":"20241128","objects":[],"time":34660000,"distance":98971.4011923614,"uphill":1233,"pointCount":453,"tags":[],"categories":["all"]},{"title":"Daily ride 2024-11-27 #1210","gpx":["track.gpx"],"date":"2024-11-27","hash":["4a9b9bd271238a9855b9ba9537f0b1c972b8acbf541c66b6bd11b582197519c8"],"id":"20241127","objects":[],"time":19713000,"distance":55462.27882690245,"uphill":408,"pointCount":264,"tags":[],"categories":["all"]},{"title":"Daily ride 2024-11-20 #1209","gpx":["track.gpx"],"date":"2024-11-20","hash":["6309a8f7106d040e757429d6e2c5a445d942f91746b66bdc5ba6936ec2e7b863"],"id":"20241120","objects":[],"time":8844000,"distance":21991.281889020942,"uphill":52,"pointCount":101,"tags":[],"categories":["all"]},{"title":"Daily ride 2024-11-19 #1208","gpx":["track.gpx"],"date":"2024-11-19","hash":["4bd066ec1ddda45e61ec8bd7d4736dc935d3a6b7089718cd1039cc2fe3eeacd0"],"id":"20241119","objects":[],"time":9110000,"distance":27701.502903812474,"uphill":212,"pointCount":117,"tags":[],"categories":["all"]},{"title":"Daily ride 2024-11-18 #1207","gpx":["track.gpx"],"date":"2024-11-18","hash":["c9adb157268c8ea38491240225420c1682bdfc9398cc942a1cbc3b0d65fa247"],"id":"20241118","objects":[],"time":7806000,"distance":16578.02334200378,"uphill":80,"pointCount":83,"tags":[],"categories":["all"]},{"title":"Daily ride 2024-11-16 #1206","gpx":["track.gpx"],"date":"2024-11-16","hash":["9d7fcd12006cf8a3358c69a1f43973e0cb05d29ec659462149d188d200840ad8"],"id":"20241116","objects":[],"time":4367000,"distance":14310.86688362598,"uphill":0,"pointCount":49,"tags":[],"categories":["all"]},{"title":"Daily ride 2024-11-14 #1205","gpx":["track.gpx"],"date":"2024-11-14","hash":["2eff85a8929053d3811851ed27b3274da6195689a21ae0407f291aaecf44fd0b"],"id":"20241114","objects":[],"time":6951000,"distance":19211.54597218687,"uphill":85,"pointCount":82,"tags":[],"categories":["all"]},{"title":"Daily ride 2024-11-12 #1204","gpx":["track.gpx"],"date":"2024-11-12","hash":["871e699955f3444a945565d8fd1ad12c0f58d46528c8a1a3b7b3453718c65d43"],"id":"20241112","objects":[],"time":10462000,"distance":16544.22414046635,"uphill":156,"pointCount":92,"tags":[],"categories":["all"]},{"title":"Daily ride 2024-11-11 #1203","gpx":["track.gpx"],"date":"2024-11-11","hash":["6ddbcffacf713e6b162c667677dba8adece5d37f1d92bdfba74451b553753f03"],"id":"20241111","objects":[],"time":8172000,"distance":18353.657636638673,"uphill":5,"pointCount":84,"tags":[],"categories":["all"]},{"title":"Daily ride 2024-11-09 #1202","gpx":["track.gpx"],"date":"2024-11-09","hash":["9626d342a2cbee965cb9d2297424b55c91a6b33a0d6509f1e3e058bd40f0ebc6"],"id":"20241109","objects":[],"time":5506000,"distance":15202.600243901477,"uphill":0,"pointCount":61,"tags":[],"categories":["all"]},{"title":"Daily ride 2024-11-08 #1201","gpx":["track.gpx"],"date":"2024-11-08","hash":["1178f6dd7fb15ed4ecc5c30f4991c3ad96bb0a7deb949ef2b13788fb8e2d99f0"],"id":"20241108","objects":[],"time":3837000,"distance":8234.99813801556,"uphill":0,"pointCount":42,"tags":[],"categories":["all"]},{"title":"Daily ride 2024-11-07 #1200","gpx":["track.gpx"],"date":"2024-11-07","hash":["a1cf6625efe3e98812e151a0628fcd71ccce44b4e502f6f0774103314500399f"],"id":"20241107","objects":[],"time":10000000,"distance":28263.322610182055,"uphill":347,"pointCount":122,"tags":[],"categories":["all"]},{"title":"Daily ride 2024-11-06 #1199","gpx":["track.gpx"],"date":"2024-11-06","hash":["71cf634ebaf234fd2faf28684d21859349e4b9edd1aa2c5790d560ead72c3857"],"id":"20241106","objects":[],"time":7016000,"distance":19985.736171955345,"uphill":92,"pointCount":90,"tags":[],"categories":["all"]},{"title":"Daily ride 2024-11-05 #1198","gpx":["track.gpx"],"date":"2024-11-05","hash":["5423b094f7b24b41ce7dd9192f39254754b503c5d44362631c58cad9ce58674a"],"id":"20241105","objects":[],"time":9933000,"distance":23880.846838897956,"uphill":183,"pointCount":108,"tags":[],"categories":["all"]},{"title":"Daily ride 2024-11-04 #1197","gpx":["track.gpx"],"date":"2024-11-04","hash":["fd7623f631e5b7f330a94ee999ffd35fa9066fd97260d9bf1d15b6791285f689"],"id":"20241104","objects":[],"time":7667000,"distance":15568.131313166206,"uphill":99,"pointCount":89,"tags":[],"categories":["all"]},{"title":"Daily ride 2024-10-31 #1196","gpx":["track.gpx"],"date":"2024-10-31","hash":["436c1ca5a900bcacab95dfcb1cf2d06a9ee2bfe990a0810b534dc460ebe48b6b"],"id":"20241031","objects":[],"time":11025000,"distance":28796.08243746055,"uphill":49,"pointCount":136,"tags":[],"categories":["all"]},{"title":"Daily ride 2024-10-30 #1195","gpx":["track.gpx"],"date":"2024-10-30","hash":["196f1375de731343ee2ae858b54d656cf8c8b940501efa6ac191bb428cd685b0"],"id":"20241030","objects":[],"time":10272000,"distance":23710.10427801676,"uphill":132,"pointCount":118,"tags":[],"categories":["all"]},{"title":"Daily ride 2024-10-29 #1194","gpx":["track.gpx"],"date":"2024-10-29","hash":["cb9b62acfbe9260f1a1812ef617323f1172989f00d07b75f0b31d9b4cec2cf"],"id":"20241029","objects":[],"time":11303000,"distance":20237.156892987343,"uphill":233,"pointCount":102,"tags":[],"categories":["all"]},{"title":"Daily ride 2024-10-28 #1193","gpx":["track.gpx"],"date":"2024-10-28","hash":["68879b0f650f4d38846d516aa93a0c2abcc08e168bbe14f4efc70dda121aebca"],"id":"20241028","objects":[],"time":10075000,"distance":18935.602588515674,"uphill":155,"pointCount":102,"tags":[],"categories":["all"]},{"title":"Daily ride 2024-10-24 #1192","gpx":["track.gpx"],"date":"2024-10-24","hash":["cd691b567f4e4bf6799e3a5ac13b28a5ba7e14cabcbdb3be4c7cbaecf393f226"],"id":"20241024","objects":[],"time":4359000,"distance":14688.574168119581,"uphill":45,"pointCount":59,"tags":[],"categories":["all"]},{"title":"Daily ride 2024-10-23 #1191","gpx":["track.gpx"],"date":"2024-10-23","hash":["bcde056a98c05b6c5ed6af9f0bb341f88ee6756bc30ed376338ed740466ea418"],"id":"20241023","objects":[],"time":10130000,"distance":20678.767921706218,"uphill":221,"pointCount":104,"tags":[],"categories":["all"]},{"title":"Daily ride 2024-10-22 #1190","gpx":["track.gpx"],"date":"2024-10-22","hash":["21ec83f94dc47bbbf6bb25bdee0870d197b3bef8f7e7d63e34e1bd348fce4d84"],"id":"20241022","objects":[],"time":8552000,"distance":23139.75641011178,"uphill":72,"pointCount":102,"tags":[],"categories":["all"]},{"title":"Daily ride 2024-10-21 #1189","gpx":["track.gpx"],"date":"2024-10-21","hash":["d2c8e563cd375559a3f0d0b4f0092180fa0a1c7805046d22c6b5d946c78f8a7b"],"id":"20241021","objects":[],"time":16298000,"distance":37095.64637347182,"uphill":208,"pointCount":173,"tags":[],"categories":["all"]},{"title":"Daily ride 2024-10-20 #1188","gpx":["track.gpx"],"date":"2024-10-20","hash":["5936cb52ab57b373e134b426d17106dc8661ae3dcb2a4dedfcab99a743046b16"],"id":"20241020","objects":[],"time":4218000,"distance":10785.722998300213,"uphill":141,"pointCount":51,"tags":[],"categories":["all"]},{"title":"Daily ride 2024-10-19 #1187","gpx":["track.gpx"],"date":"2024-10-19","hash":["89a8c1f6172dfddd29589eba0fa4c859cdc0736e3445580fdf2face3cf5ef245"],"id":"20241019","objects":[],"time":10318000,"distance":24533.847016193744,"uphill":266,"pointCount":114,"tags":[],"categories":["all"]},{"title":"Daily ride 2024-10-18 #1186","gpx":["track.gpx"],"date":"2024-10-18","hash":["6235487bf0381baa0b460424278148d96fd5b8074aa90e867640f22e458f0062"],"id":"20241018","objects":[],"time":3728000,"distance":8218.351758910228,"uphill":25,"pointCount":43,"tags":[],"categories":["all"]},{"title":"Daily ride 2024-10-17 #1185","gpx":["track.gpx"],"date":"2024-10-17","hash":["1f4a94f99b44e10c2e14b5377cb9d71d258334460859c1f771c8257fd4b6611"],"id":"20241017","objects":[],"time":8580000,"distance":21746.480702300516,"uphill":96,"pointCount":94,"tags":[],"categories":["all"]},{"title":"Daily ride 2024-10-16 #1184","gpx":["track.gpx"],"date":"2024-10-16","hash":["ee900caf69148b4f85587b6c5350ebcf2ca450b33e1efe6e1e02a73c3a2be0d0"],"id":"20241016","objects":[],"time":8057000,"distance":28298.00829479576,"uphill":95,"pointCount":116,"tags":[],"categories":["all"]},{"title":"Daily ride 2024-10-15 #1183","gpx":["track.gpx"],"date":"2024-10-15","hash":["31e1113bd83097f5a25dbb5c747436812128d27ef9dba42de99f14bf0d53ea00"],"id":"20241015","objects":[],"time":6979000,"distance":19747.66012973021,"uphill":96,"pointCount":92,"tags":[],"categories":["all"]},{"title":"Daily ride 2024-10-14 #1182","gpx":["track.gpx"],"date":"2024-10-14","hash":["b24e67b77691539e224a28859bc2dfa469bc562d440260f80b668ba2b09636d4"],"id":"20241014","objects":[],"time":14414000,"distance":28656.37458834332,"uphill":89,"pointCount":147,"tags":[],"categories":["all"]},{"title":"Daily ride 2024-10-12 #1181","gpx":["track.gpx"],"date":"2024-10-12","hash":["4246f9372bf7d6e9b9e6690f8568ffe0c17cdca9c4b34ed5096f26352a90b6d9"],"id":"20241012","objects":[],"time":5655000,"distance":14403.431101557875,"uphill":113,"pointCount":62,"tags":[],"categories":["all"]},{"title":"Daily ride 2024-10-11 #1180","gpx":["track.gpx"],"date":"2024-10-11","hash":["359c53049f8c0c41c2903e81d0ee71c4fd07b73be06eeebda07c48d0852376f8"],"id":"20241011","objects":[],"time":3798000,"distance":8856.93642968214,"uphill":71,"pointCount":43,"tags":[],"categories":["all"]},{"title":"Daily ride 2024-10-10 #1179","gpx":["track.gpx"],"date":"2024-10-10","hash":["f27400a83e23030483be61399488f7197541f30dec077fc25df3e5feff2394bf"],"id":"20241010","objects":[],"time":3157000,"distance":9073.436972366604,"uphill":0,"pointCount":41,"tags":[],"categories":["all"]},{"title":"Daily ride 2024-10-09 #1178","gpx":["track.gpx"],"date":"2024-10-09","hash":["815b67afbd834e47e660754c3dac161d5c44b9b5e24bbb6772b38b535b5b664"],"id":"20241009","objects":[],"time":16154000,"distance":44496.31999546125,"uphill":290,"pointCount":192,"tags":[],"categories":["all"]},{"title":"Daily ride 2024-10-08 #1177","gpx":["track.gpx"],"date":"2024-10-08","hash":["6d24c1904b41fb4deb538541fe19d553cc9d3a69558beca5b1ac0ef7d2d1c9ce"],"id":"20241008","objects":[],"time":9367000,"distance":18069.973903025824,"uphill":179,"pointCount":100,"tags":[],"categories":["all"]},{"title":"Daily ride 2024-10-07 #1176","gpx":["track.gpx"],"date":"2024-10-07","hash":["779be614fa3519541e6d762bf9143277f6768d2dd5010ae1bc54406b84a4f1aa"],"id":"20241007","objects":[],"time":10798000,"distance":32338.654836380527,"uphill":103,"pointCount":142,"tags":[],"categories":["all"]},{"title":"Daily ride 2024-10-06 #1175","gpx":["track.gpx"],"date":"2024-10-06","hash":["78d89404f8e08895ffc015e5b6d22eac20c390df463bf1b77966630dfd2c18dd"],"id":"20241006","objects":[],"time":1994000,"distance":3829.6929353556247,"uphill":31,"pointCount":21,"tags":[],"categories":["all"]},{"title":"Daily ride 2024-10-05 #1174","gpx":["track.gpx"],"date":"2024-10-05","hash":["c42b8b7ae6588fef06a02a206a33e1d2d650997f544f67a227107da81334ed8d"],"id":"20241005","objects":[],"time":949000,"distance":2953.6373707223006,"uphill":0,"pointCount":9,"tags":[],"categories":["all"]}]},"__N_SSG":true}