{"pageProps":{"siteDescription":"Description of local dev version","siteTitle":"Local dev version","currentPage":1,"pages":272,"categories":[{"id":"all","title":"All","count":544},{"id":"with-pictures","title":"With pictures or videos","count":28},{"id":"office A","title":"office A","count":18},{"id":"miyata","title":"miyata","count":17},{"id":"office B","title":"office B","count":32},{"id":"recumbent","title":"recumbent","count":96},{"id":"tandem","title":"tandem","count":86},{"id":"wife","title":"wife","count":14},{"id":"son","title":"son","count":2},{"id":"grocery store","title":"grocery store","count":10},{"id":"just for fun","title":"just for fun","count":2},{"id":"Los Angeles","title":"Los Angeles","count":6},{"id":"school","title":"school","count":52},{"id":"horse camp","title":"horse camp","count":2},{"id":"yasha's heaven","title":"yasha's heaven","count":1},{"id":"seattle","title":"seattle","count":14},{"id":"walk","title":"walk","count":1},{"id":"office C","title":"office C","count":9},{"id":"with the kid","title":"with the kid","count":4},{"id":"ToTheEastCost","title":"ToTheEastCost","count":12}],"category":"all","index":[{"title":"Daily ride 2022-05-17 #544","gpx":["track.gpx"],"date":"2022-05-17","hash":["fff0bf90db2e5cac5f5c467277c1f314b831f6a83a5f05da8c11e89881c2981a"],"id":"20220517","objects":[],"time":9693000,"distance":30989.571411722776,"uphill":259,"pointCount":89,"tags":[],"categories":["all"]},{"title":"Daily ride 2022-05-16 #543","description":"Day 14. Wyoming, Colorado. I decided that I want to see Colorado, that is a little aside but sould be very interesting.","tags":["recumbent","ToTheEastCost"],"gpx":["track.gpx"],"date":"2022-05-16","hash":["619c4e2b597aa7aec3078b6eeb12fa970a18185e05d2714f9a5b6c6cf7769947"],"id":"20220516","objects":[{"type":"image","img":"20220516-photo0","lat":41.24823758241774,"lng":-105.38245045365112},{"type":"image","img":"20220516-photo1","lat":41.16122221582385,"lng":-104.7905069874213},{"type":"image","img":"20220516-photo10","lat":40.28970949973594,"lng":-105.07343499822288},{"type":"image","img":"20220516-photo11","lat":40.26516678412669,"lng":-105.07414032303815},{"type":"image","img":"20220516-photo2","lat":41.16029878458779,"lng":-104.79596173644516},{"type":"image","img":"20220516-photo3","lat":41.044468151194266,"lng":-104.78819527931802},{"type":"image","img":"20220516-photo4","lat":40.83724323725214,"lng":-104.79155880808587},{"type":"image","img":"20220516-photo5","lat":40.61319344367837,"lng":-104.74341041268828},{"type":"image","img":"20220516-photo6","lat":40.58224729793764,"lng":-104.8052851400265},{"type":"image","img":"20220516-photo7","lat":40.581816744140184,"lng":-104.82338096014696},{"type":"image","img":"20220516-photo8","lat":40.58167321110065,"lng":-104.82731633327276},{"type":"image","img":"20220516-photo9","lat":40.314585973505125,"lng":-105.09312431764731}],"time":53297000,"distance":228749.69680656923,"uphill":273,"pointCount":520,"categories":["all","recumbent","ToTheEastCost","with-pictures"]}]},"__N_SSG":true}