{"pageProps":{"siteDescription":"Description of local dev version","siteTitle":"Local dev version","currentPage":1,"pages":273,"categories":[{"id":"all","title":"All","count":546},{"id":"with-pictures","title":"With pictures or videos","count":31},{"id":"office A","title":"office A","count":18},{"id":"miyata","title":"miyata","count":17},{"id":"office B","title":"office B","count":32},{"id":"recumbent","title":"recumbent","count":101},{"id":"tandem","title":"tandem","count":86},{"id":"wife","title":"wife","count":14},{"id":"son","title":"son","count":2},{"id":"grocery store","title":"grocery store","count":10},{"id":"just for fun","title":"just for fun","count":2},{"id":"Los Angeles","title":"Los Angeles","count":6},{"id":"school","title":"school","count":52},{"id":"horse camp","title":"horse camp","count":2},{"id":"yasha's heaven","title":"yasha's heaven","count":1},{"id":"seattle","title":"seattle","count":14},{"id":"walk","title":"walk","count":1},{"id":"office C","title":"office C","count":9},{"id":"with the kid","title":"with the kid","count":4},{"id":"ToTheEastCost","title":"ToTheEastCost","count":17}],"category":"all","index":[{"title":"Daily ride 2022-05-19 #546","description":"Day 17. Kansas. Tent.","tags":["recumbent","ToTheEastCost"],"gpx":["track.gpx"],"date":"2022-05-19","hash":["97492123633dcf74a026c8e6abd2ebc5fe0159f7a4939ba35931ec4087cef9de"],"id":"20220519","objects":[{"type":"image","img":"20220519-photo0","lat":39.779656555901624,"lng":-101.38367015886188},{"type":"image","img":"20220519-photo1","lat":39.828089331405536,"lng":-100.30056689097103},{"type":"image","img":"20220519-photo2","lat":40.160964421273064,"lng":-99.89756840303868}],"time":47046000,"distance":196987.6345886426,"uphill":429,"pointCount":445,"categories":["all","recumbent","ToTheEastCost","with-pictures"]},{"title":"Daily ride 2022-05-18 #545","description":"Day 16. Colorado. Tent.","tags":["recumbent","ToTheEastCost"],"gpx":["track.gpx"],"date":"2022-05-18","hash":["9f38bbb3c756322b2ef43c58fbd009378eb119dc7503e9c75f3f6c736d2a9063"],"id":"20220518","objects":[{"type":"image","img":"20220518-photo0","lat":39.73634612294096,"lng":-103.82436512548857},{"type":"image","img":"20220518-photo1","lat":39.73634612294096,"lng":-103.82436512548857},{"type":"image","img":"20220518-photo2","lat":39.73995364014718,"lng":-103.58361675501638},{"type":"image","img":"20220518-photo3","lat":39.701714772497,"lng":-102.35996915761588},{"type":"image","img":"20220518-photo4","lat":39.74604332483462,"lng":-102.16013570062542},{"type":"image","img":"20220518-photo5","lat":39.75168882578478,"lng":-102.04932327410657},{"type":"image","img":"20220518-photo6","lat":39.76720555132635,"lng":-101.80426179390669},{"type":"image","img":"20220518-photo7","lat":39.76717642996473,"lng":-101.8012011298078}],"time":45113000,"distance":200187.81910314906,"uphill":305,"pointCount":426,"categories":["all","recumbent","ToTheEastCost","with-pictures"]}]},"__N_SSG":true}