{"pageProps":{"siteDescription":"Description of local dev version","siteTitle":"Local dev version","currentPage":1,"pages":271,"categories":[{"id":"all","title":"All","count":541},{"id":"with-pictures","title":"With pictures or videos","count":25},{"id":"office A","title":"office A","count":18},{"id":"miyata","title":"miyata","count":17},{"id":"office B","title":"office B","count":32},{"id":"recumbent","title":"recumbent","count":91},{"id":"tandem","title":"tandem","count":86},{"id":"wife","title":"wife","count":14},{"id":"son","title":"son","count":2},{"id":"grocery store","title":"grocery store","count":10},{"id":"just for fun","title":"just for fun","count":2},{"id":"Los Angeles","title":"Los Angeles","count":6},{"id":"school","title":"school","count":52},{"id":"horse camp","title":"horse camp","count":2},{"id":"yasha's heaven","title":"yasha's heaven","count":1},{"id":"seattle","title":"seattle","count":14},{"id":"walk","title":"walk","count":1},{"id":"office C","title":"office C","count":9},{"id":"with the kid","title":"with the kid","count":4},{"id":"ToTheEastCost","title":"ToTheEastCost","count":7}],"category":"all","index":[{"title":"Daily ride 2022-05-14 #541","gpx":["track.gpx"],"date":"2022-05-14","hash":["83d594108102a9eaa8ac84ddea207e5baecee0300493b4203c637b66718adacf"],"id":"20220514","objects":[],"time":36998000,"distance":183400.19310993675,"uphill":434,"pointCount":336,"tags":[],"categories":["all"]},{"title":"Daily ride 2022-05-13 #540","description":"Day 11. Moved along I-80, that is legal","tags":["recumbent","ToTheEastCost"],"gpx":["track.gpx"],"date":"2022-05-13","hash":["bd141d05ec7b792582be0f2fb87b7170b809cbde55f5b11780c14fea36124a80"],"id":"20220513","objects":[{"type":"image","img":"20220513-photo0","lat":41.0165433028827,"lng":-111.03330259465048},{"type":"image","img":"20220513-photo1","lat":41.044059254084424,"lng":-111.02636349600256},{"type":"image","img":"20220513-photo10","lat":41.568718074338356,"lng":-109.2837358165033},{"type":"image","img":"20220513-photo11","lat":41.576303567777835,"lng":-109.23694675432195},{"type":"image","img":"20220513-photo2","lat":41.044059254084424,"lng":-111.02636349600256},{"type":"image","img":"20220513-photo3","lat":41.044059254084424,"lng":-111.02636349600256},{"type":"image","img":"20220513-photo4","lat":41.3249140378308,"lng":-110.47078459674722},{"type":"image","img":"20220513-photo5","lat":41.39255594817521,"lng":-110.18435805616427},{"type":"image","img":"20220513-photo6","lat":41.3949411728457,"lng":-110.17879075448604},{"type":"image","img":"20220513-photo7","lat":41.40826292998138,"lng":-110.14884026867858},{"type":"image","img":"20220513-photo8","lat":41.51105100726876,"lng":-109.98198407872941},{"type":"image","img":"20220513-photo9","lat":41.55506412958985,"lng":-109.5131793432785}],"time":43302000,"distance":200760.79193756776,"uphill":1263,"pointCount":427,"categories":["all","recumbent","ToTheEastCost","with-pictures"]}]},"__N_SSG":true}