{"pageProps":{"siteDescription":"Description of local dev version","siteTitle":"Local dev version","currentPage":1,"pages":278,"categories":[{"id":"all","title":"All","count":555},{"id":"with-pictures","title":"With pictures or videos","count":39},{"id":"office A","title":"office A","count":18},{"id":"miyata","title":"miyata","count":17},{"id":"office B","title":"office B","count":32},{"id":"recumbent","title":"recumbent","count":108},{"id":"tandem","title":"tandem","count":86},{"id":"wife","title":"wife","count":14},{"id":"son","title":"son","count":2},{"id":"grocery store","title":"grocery store","count":10},{"id":"just for fun","title":"just for fun","count":2},{"id":"Los Angeles","title":"Los Angeles","count":6},{"id":"school","title":"school","count":52},{"id":"horse camp","title":"horse camp","count":2},{"id":"yasha's heaven","title":"yasha's heaven","count":1},{"id":"seattle","title":"seattle","count":14},{"id":"walk","title":"walk","count":1},{"id":"office C","title":"office C","count":9},{"id":"with the kid","title":"with the kid","count":4},{"id":"ToTheEastCost","title":"ToTheEastCost","count":24}],"category":"all","index":[{"title":"Daily ride 2022-05-28 #555","gpx":["track.gpx"],"date":"2022-05-28","hash":["a13c9f470fd0ba169e80e2e7f9b4dd40a1c03ee732fdcae57c7972f28b812773"],"id":"20220528","objects":[],"time":33581000,"distance":111356.44312583607,"uphill":371,"pointCount":319,"tags":[],"categories":["all"]},{"title":"Daily ride 2022-05-27 #554","gpx":["track.gpx"],"date":"2022-05-27","hash":["f0f3d69cdbda9b38e77428ad5b1815f945afed0701ae5448666dcf2b4bee5d9d"],"id":"20220527","objects":[{"type":"image","img":"20220527-photo0","lat":41.32777822209321,"lng":-88.91903079738302},{"type":"image","img":"20220527-photo1","lat":41.329891343226926,"lng":-88.91237256295439},{"type":"image","img":"20220527-photo10","lat":41.78221607168192,"lng":-88.30167896842264},{"type":"image","img":"20220527-photo11","lat":41.788645414863495,"lng":-88.29195654114073},{"type":"image","img":"20220527-photo12","lat":41.82050440654881,"lng":-88.19039731533032},{"type":"image","img":"20220527-photo13","lat":41.85915819382143,"lng":-88.0779638591586},{"type":"image","img":"20220527-photo14","lat":41.874931506893795,"lng":-87.97863385642107},{"type":"image","img":"20220527-photo2","lat":41.345622142866006,"lng":-88.84908814000657},{"type":"image","img":"20220527-photo3","lat":41.3459305169571,"lng":-88.84402790498915},{"type":"image","img":"20220527-photo4","lat":41.34581738313759,"lng":-88.82895658829143},{"type":"image","img":"20220527-photo5","lat":41.35061560853155,"lng":-88.80914055681681},{"type":"image","img":"20220527-photo6","lat":41.393283759173876,"lng":-88.75922255153239},{"type":"image","img":"20220527-photo7","lat":41.41522440111289,"lng":-88.73267068828727},{"type":"image","img":"20220527-photo8","lat":41.46483394944106,"lng":-88.66660884990057},{"type":"image","img":"20220527-photo9","lat":41.658264362547584,"lng":-88.4284590642825}],"time":50308000,"distance":157940.473196779,"uphill":605,"pointCount":468,"tags":[],"categories":["all","with-pictures"]}]},"__N_SSG":true}