{"pageProps":{"siteDescription":"Non-moderated collection of my bike and walking tracks which are updated every day automatically. More description of work principle you can find [here](https://github.com/vasyaod/my-trips-viewer/blob/master/how-my-tracks-works.md)","siteTitle":"All My Bike Tracks","currentPage":1,"pages":25,"categories":[{"id":"all","title":"All","count":1243},{"id":"with-pictures","title":"With pictures or videos","count":53},{"id":"office A","title":"office A","count":18},{"id":"miyata","title":"miyata","count":17},{"id":"office B","title":"office B","count":32},{"id":"recumbent","title":"recumbent","count":122},{"id":"tandem","title":"tandem","count":90},{"id":"wife","title":"wife","count":15},{"id":"son","title":"son","count":2},{"id":"grocery store","title":"grocery store","count":10},{"id":"just for fun","title":"just for fun","count":2},{"id":"Los Angeles","title":"Los Angeles","count":6},{"id":"school","title":"school","count":52},{"id":"horse camp","title":"horse camp","count":2},{"id":"yasha's heaven","title":"yasha's heaven","count":1},{"id":"seattle","title":"seattle","count":14},{"id":"walk","title":"walk","count":1},{"id":"office C","title":"office C","count":9},{"id":"with the kid","title":"with the kid","count":6},{"id":"ToTheEastCoast","title":"ToTheEastCoast","count":38}],"category":"all","index":[{"title":"Daily ride 2025-01-03 #1243","gpx":["track.gpx"],"date":"2025-01-03","hash":["22adb5668649ab1596ad3d3c188d4c782d49ffd8cc468b39e61d6e4e9bf7a2fe"],"id":"20250103","objects":[],"time":1637000,"distance":217.85425612139306,"uphill":0,"pointCount":7,"tags":[],"categories":["all"]},{"title":"Daily ride 2025-01-02 #1242","gpx":["track.gpx"],"date":"2025-01-02","hash":["9e34f9fa6a2794d44e11cc41c44a7a8f929c59a4b570fcd225c686d44de49448"],"id":"20250102","objects":[],"time":4703000,"distance":18576.562266029207,"uphill":44,"pointCount":75,"tags":[],"categories":["all"]},{"title":"Daily ride 2025-01-01 #1241","gpx":["track.gpx"],"date":"2025-01-01","hash":["a8db314f032023f855b5bff00c21b3e5013859793db84db7da8ea0f0e30ae6c7"],"id":"20250101","objects":[],"distance":0,"uphill":0,"tags":[],"categories":["all"]},{"title":"Daily ride 2024-12-31 #1240","gpx":["track.gpx"],"date":"2024-12-31","hash":["5c2566360b29f5bc11dba85c39f1c6a8bc0a7afb13a50323f0e7f5ffff87013d"],"id":"20241231","objects":[],"time":1938000,"distance":3739.907227514935,"uphill":0,"pointCount":20,"tags":[],"categories":["all"]},{"title":"Daily ride 2024-12-30 #1239","gpx":["track.gpx"],"date":"2024-12-30","hash":["b848d7ea0277ef4b369b095c69ff415442da80e11e2e4bac6dbc4aa703ca5865"],"id":"20241230","objects":[],"time":822000,"distance":3353.5265916726007,"uphill":0,"pointCount":15,"tags":[],"categories":["all"]},{"title":"Daily ride 2024-12-29 #1238","gpx":["track.gpx"],"date":"2024-12-29","hash":["e08ecd8c671a713b9e598abc63875d0b09efc3c384f7dbd920047518c1dfb255"],"id":"20241229","objects":[],"time":5940000,"distance":16099.917730074732,"uphill":110,"pointCount":74,"tags":[],"categories":["all"]},{"title":"Daily ride 2024-12-28 #1237","gpx":["track.gpx"],"date":"2024-12-28","hash":["878be2ab8614c3d52db6525d1404b150d3226b29965316eb8143b583fad2be78"],"id":"20241228","objects":[],"time":2701000,"distance":8462.083303223051,"uphill":8,"pointCount":37,"tags":[],"categories":["all"]},{"title":"Daily ride 2024-12-27 #1236","gpx":["track.gpx"],"date":"2024-12-27","hash":["df2479b2e88919270c2a12d0dc9cc9d94db82a3a24ca4b27f9d768ac3937c1"],"id":"20241227","objects":[],"time":4292000,"distance":14603.85436152398,"uphill":33,"pointCount":62,"tags":[],"categories":["all"]},{"title":"Daily ride 2024-12-26 #1235","gpx":["track.gpx"],"date":"2024-12-26","hash":["ae2ede74cb42b6527cad4e01245aef85a980334daee3b598ed687478afe5a8e5"],"id":"20241226","objects":[],"time":4012000,"distance":7986.184707759408,"uphill":254,"pointCount":45,"tags":[],"categories":["all"]},{"title":"Daily ride 2024-12-25 #1234","gpx":["track.gpx"],"date":"2024-12-25","hash":["d460a81b1e02f257478bfc4077eb59d385c55bb2b56465a3114d8934c832e7d5"],"id":"20241225","objects":[],"time":2533000,"distance":2134.660591846213,"uphill":27,"pointCount":17,"tags":[],"categories":["all"]},{"title":"Daily ride 2024-12-23 #1233","gpx":["track.gpx"],"date":"2024-12-23","hash":["3a6cdf2d157ce2b9f8de7e63da17b62bbaf72966295fab83e8b52ba357d72450"],"id":"20241223","objects":[],"time":2591000,"distance":7573.746143198002,"uphill":147,"pointCount":35,"tags":[],"categories":["all"]},{"title":"Daily ride 2024-12-21 #1232","gpx":["track.gpx"],"date":"2024-12-21","hash":["7432f1947e37b13aac9b5c5bda2644d28330ce025b448cf63079c3d881540f91"],"id":"20241221","objects":[],"time":13097000,"distance":37183.56624941576,"uphill":65,"pointCount":166,"tags":[],"categories":["all"]},{"title":"Daily ride 2024-12-20 #1231","gpx":["track.gpx"],"date":"2024-12-20","hash":["21f9a5bef4389ee4ee61991369260fb0d5fa3c63150b242bd432b50588ab8272"],"id":"20241220","objects":[],"time":6980000,"distance":18725.201033689704,"uphill":97,"pointCount":87,"tags":[],"categories":["all"]},{"title":"Daily ride 2024-12-19 #1230","gpx":["track.gpx"],"date":"2024-12-19","hash":["734e97114e2e1379e5c7fac2a6cd57aff6367f4db52565c0a2917eb04cc87aa2"],"id":"20241219","objects":[],"time":1569000,"distance":3610.8950190275496,"uphill":9,"pointCount":18,"tags":[],"categories":["all"]},{"title":"Daily ride 2024-12-18 #1229","gpx":["track.gpx"],"date":"2024-12-18","hash":["86c2ff7cc0779eae181d88276070a10557e93df0dd106fd23ee5f5de0171df51"],"id":"20241218","objects":[],"time":9144000,"distance":16122.180156874414,"uphill":295,"pointCount":90,"tags":[],"categories":["all"]},{"title":"Daily ride 2024-12-17 #1228","gpx":["track.gpx"],"date":"2024-12-17","hash":["b6c632f5e3a61beea4eb309429614304eb20be1ea255a8fef9d7d0dd44000b37"],"id":"20241217","objects":[],"time":4845000,"distance":17403.519658364632,"uphill":124,"pointCount":73,"tags":[],"categories":["all"]},{"title":"Daily ride 2024-12-16 #1227","gpx":["track.gpx"],"date":"2024-12-16","hash":["a8a2b9a1a1bcde2a4734b788f920cf4618cac5e990684d4b8304e58f678647a3"],"id":"20241216","objects":[],"time":51736000,"distance":21952.660320002105,"uphill":12009,"pointCount":405,"tags":[],"categories":["all"]},{"title":"Daily ride 2024-12-15 #1226","gpx":["track.gpx"],"date":"2024-12-15","hash":["f2fd59602b98f178917603ebda8a6487a8cfb3cf4fa2a36ae3c7e964f13b2661"],"id":"20241215","objects":[],"time":3300000,"distance":5761.022959717455,"uphill":256,"pointCount":42,"tags":[],"categories":["all"]},{"title":"Daily ride 2024-12-12 #1225","gpx":["track.gpx"],"date":"2024-12-12","hash":["b21e4603e34632d37c7c0f807199ee4687f168fe1c37f550d36751ea5201746a"],"id":"20241212","objects":[],"time":9247000,"distance":25631.42902968672,"uphill":303,"pointCount":130,"tags":[],"categories":["all"]},{"title":"Daily ride 2024-12-11 #1224","gpx":["track.gpx"],"date":"2024-12-11","hash":["583040afd89cd9076de045bfb987e5eb3685492f4f355239818c5e2cbc5f8b52"],"id":"20241211","objects":[],"time":28284000,"distance":83058.33558839986,"uphill":537,"pointCount":375,"tags":[],"categories":["all"]},{"title":"Daily ride 2024-12-10 #1223","gpx":["track.gpx"],"date":"2024-12-10","hash":["9167703af5283f86e8e67a847ae71721a4c71b2eb6ee9a3f147c2c950d78adbf"],"id":"20241210","objects":[],"time":25963000,"distance":63524.90037534074,"uphill":1018,"pointCount":355,"tags":[],"categories":["all"]},{"title":"Daily ride 2024-12-09 #1222","gpx":["track.gpx"],"date":"2024-12-09","hash":["20ca33cc6b31607111c7f384afe12dc184044e3f54fa313f69dd4dd56dcb71bf"],"id":"20241209","objects":[],"time":30244000,"distance":72753.05057026572,"uphill":1708,"pointCount":412,"tags":[],"categories":["all"]},{"title":"Daily ride 2024-12-08 #1221","gpx":["track.gpx"],"date":"2024-12-08","hash":["dd47d39d98a40bf75fcbb67fa3c2735c706e908e56a68c075303ddd9339971b"],"id":"20241208","objects":[],"time":34786000,"distance":78895.6016893282,"uphill":1218,"pointCount":432,"tags":[],"categories":["all"]},{"title":"Daily ride 2024-12-07 #1220","gpx":["track.gpx"],"date":"2024-12-07","hash":["1be0ac07bd70ca9ff5e0fe756547290a16ce719661ae91de720212612cba678e"],"id":"20241207","objects":[],"time":35012000,"distance":85458.20702317226,"uphill":1466,"pointCount":418,"tags":[],"categories":["all"]},{"title":"Daily ride 2024-12-06 #1219","gpx":["track.gpx"],"date":"2024-12-06","hash":["b3c30540b4f761c6914c9b5aba17d562bdebbe5bc0f21ff14e8c04b8606bad8"],"id":"20241206","objects":[],"time":37724000,"distance":82291.15219187365,"uphill":1420,"pointCount":454,"tags":[],"categories":["all"]},{"title":"Daily ride 2024-12-05 #1218","gpx":["track.gpx"],"date":"2024-12-05","hash":["2cb72ad97ae0da7387bbdb55882ce5ab2f017547e3f51a1f98bb95da13310902"],"id":"20241205","objects":[],"time":35474000,"distance":87178.93338610532,"uphill":1066,"pointCount":479,"tags":[],"categories":["all"]},{"title":"Daily ride 2024-12-04 #1217","gpx":["track.gpx"],"date":"2024-12-04","hash":["f62574187c62c72fdedb23df9e5a4c293d890c84b89215d25c6c8fab364b17de"],"id":"20241204","objects":[],"time":35696000,"distance":85436.82615170721,"uphill":1743,"pointCount":459,"tags":[],"categories":["all"]},{"title":"Daily ride 2024-12-03 #1216","gpx":["track.gpx"],"date":"2024-12-03","hash":["bf66160be08b8b044983f8b23b5f2b0b3023b0201b16756184810e2de7bd864d"],"id":"20241203","objects":[],"time":38443000,"distance":72174.24190605666,"uphill":2111,"pointCount":435,"tags":[],"categories":["all"]},{"title":"Daily ride 2024-12-02 #1215","gpx":["track.gpx"],"date":"2024-12-02","hash":["f78bc61c98f08542137e95d36973b032c48812f31046c0aaea3d027b3a7e8d20"],"id":"20241202","objects":[],"time":34657000,"distance":78591.85750819658,"uphill":1539,"pointCount":446,"tags":[],"categories":["all"]},{"title":"Daily ride 2024-12-01 #1214","gpx":["track.gpx"],"date":"2024-12-01","hash":["f61494d3e981ba0dce3cc78ded4573dbb5e2e09177ae1de82fcd8111f4ba6464"],"id":"20241201","objects":[],"time":38515000,"distance":95619.81503360401,"uphill":2205,"pointCount":514,"tags":[],"categories":["all"]},{"title":"Daily ride 2024-11-30 #1213","gpx":["track.gpx"],"date":"2024-11-30","hash":["d8f25bbace3a70828b940fbb3e223f4b55661e8e27a9301d159ee6f89561f94"],"id":"20241130","objects":[],"time":36354000,"distance":85932.05933997342,"uphill":1276,"pointCount":457,"tags":[],"categories":["all"]},{"title":"Daily ride 2024-11-29 #1212","gpx":["track.gpx"],"date":"2024-11-29","hash":["8e53cf5b033c3540fe765e22cb05bf8c4c919677779d5e9cf10c1978784eb488"],"id":"20241129","objects":[],"time":38268000,"distance":111753.74918221931,"uphill":865,"pointCount":512,"tags":[],"categories":["all"]},{"title":"Daily ride 2024-11-28 #1211","gpx":["track.gpx"],"date":"2024-11-28","hash":["9336a9f34a497dfab4a4dca5327df4949e67f48af04fe204410fc2fc7688c802"],"id":"20241128","objects":[],"time":34660000,"distance":98971.4011923614,"uphill":1233,"pointCount":453,"tags":[],"categories":["all"]},{"title":"Daily ride 2024-11-27 #1210","gpx":["track.gpx"],"date":"2024-11-27","hash":["4a9b9bd271238a9855b9ba9537f0b1c972b8acbf541c66b6bd11b582197519c8"],"id":"20241127","objects":[],"time":19713000,"distance":55462.27882690245,"uphill":408,"pointCount":264,"tags":[],"categories":["all"]},{"title":"Daily ride 2024-11-20 #1209","gpx":["track.gpx"],"date":"2024-11-20","hash":["6309a8f7106d040e757429d6e2c5a445d942f91746b66bdc5ba6936ec2e7b863"],"id":"20241120","objects":[],"time":8844000,"distance":21991.281889020942,"uphill":52,"pointCount":101,"tags":[],"categories":["all"]},{"title":"Daily ride 2024-11-19 #1208","gpx":["track.gpx"],"date":"2024-11-19","hash":["4bd066ec1ddda45e61ec8bd7d4736dc935d3a6b7089718cd1039cc2fe3eeacd0"],"id":"20241119","objects":[],"time":9110000,"distance":27701.502903812474,"uphill":212,"pointCount":117,"tags":[],"categories":["all"]},{"title":"Daily ride 2024-11-18 #1207","gpx":["track.gpx"],"date":"2024-11-18","hash":["c9adb157268c8ea38491240225420c1682bdfc9398cc942a1cbc3b0d65fa247"],"id":"20241118","objects":[],"time":7806000,"distance":16578.02334200378,"uphill":80,"pointCount":83,"tags":[],"categories":["all"]},{"title":"Daily ride 2024-11-16 #1206","gpx":["track.gpx"],"date":"2024-11-16","hash":["9d7fcd12006cf8a3358c69a1f43973e0cb05d29ec659462149d188d200840ad8"],"id":"20241116","objects":[],"time":4367000,"distance":14310.86688362598,"uphill":0,"pointCount":49,"tags":[],"categories":["all"]},{"title":"Daily ride 2024-11-14 #1205","gpx":["track.gpx"],"date":"2024-11-14","hash":["2eff85a8929053d3811851ed27b3274da6195689a21ae0407f291aaecf44fd0b"],"id":"20241114","objects":[],"time":6951000,"distance":19211.54597218687,"uphill":85,"pointCount":82,"tags":[],"categories":["all"]},{"title":"Daily ride 2024-11-12 #1204","gpx":["track.gpx"],"date":"2024-11-12","hash":["871e699955f3444a945565d8fd1ad12c0f58d46528c8a1a3b7b3453718c65d43"],"id":"20241112","objects":[],"time":10462000,"distance":16544.22414046635,"uphill":156,"pointCount":92,"tags":[],"categories":["all"]},{"title":"Daily ride 2024-11-11 #1203","gpx":["track.gpx"],"date":"2024-11-11","hash":["6ddbcffacf713e6b162c667677dba8adece5d37f1d92bdfba74451b553753f03"],"id":"20241111","objects":[],"time":8172000,"distance":18353.657636638673,"uphill":5,"pointCount":84,"tags":[],"categories":["all"]},{"title":"Daily ride 2024-11-09 #1202","gpx":["track.gpx"],"date":"2024-11-09","hash":["9626d342a2cbee965cb9d2297424b55c91a6b33a0d6509f1e3e058bd40f0ebc6"],"id":"20241109","objects":[],"time":5506000,"distance":15202.600243901477,"uphill":0,"pointCount":61,"tags":[],"categories":["all"]},{"title":"Daily ride 2024-11-08 #1201","gpx":["track.gpx"],"date":"2024-11-08","hash":["1178f6dd7fb15ed4ecc5c30f4991c3ad96bb0a7deb949ef2b13788fb8e2d99f0"],"id":"20241108","objects":[],"time":3837000,"distance":8234.99813801556,"uphill":0,"pointCount":42,"tags":[],"categories":["all"]},{"title":"Daily ride 2024-11-07 #1200","gpx":["track.gpx"],"date":"2024-11-07","hash":["a1cf6625efe3e98812e151a0628fcd71ccce44b4e502f6f0774103314500399f"],"id":"20241107","objects":[],"time":10000000,"distance":28263.322610182055,"uphill":347,"pointCount":122,"tags":[],"categories":["all"]},{"title":"Daily ride 2024-11-06 #1199","gpx":["track.gpx"],"date":"2024-11-06","hash":["71cf634ebaf234fd2faf28684d21859349e4b9edd1aa2c5790d560ead72c3857"],"id":"20241106","objects":[],"time":7016000,"distance":19985.736171955345,"uphill":92,"pointCount":90,"tags":[],"categories":["all"]},{"title":"Daily ride 2024-11-05 #1198","gpx":["track.gpx"],"date":"2024-11-05","hash":["5423b094f7b24b41ce7dd9192f39254754b503c5d44362631c58cad9ce58674a"],"id":"20241105","objects":[],"time":9933000,"distance":23880.846838897956,"uphill":183,"pointCount":108,"tags":[],"categories":["all"]},{"title":"Daily ride 2024-11-04 #1197","gpx":["track.gpx"],"date":"2024-11-04","hash":["fd7623f631e5b7f330a94ee999ffd35fa9066fd97260d9bf1d15b6791285f689"],"id":"20241104","objects":[],"time":7667000,"distance":15568.131313166206,"uphill":99,"pointCount":89,"tags":[],"categories":["all"]},{"title":"Daily ride 2024-10-31 #1196","gpx":["track.gpx"],"date":"2024-10-31","hash":["436c1ca5a900bcacab95dfcb1cf2d06a9ee2bfe990a0810b534dc460ebe48b6b"],"id":"20241031","objects":[],"time":11025000,"distance":28796.08243746055,"uphill":49,"pointCount":136,"tags":[],"categories":["all"]},{"title":"Daily ride 2024-10-30 #1195","gpx":["track.gpx"],"date":"2024-10-30","hash":["196f1375de731343ee2ae858b54d656cf8c8b940501efa6ac191bb428cd685b0"],"id":"20241030","objects":[],"time":10272000,"distance":23710.10427801676,"uphill":132,"pointCount":118,"tags":[],"categories":["all"]},{"title":"Daily ride 2024-10-29 #1194","gpx":["track.gpx"],"date":"2024-10-29","hash":["cb9b62acfbe9260f1a1812ef617323f1172989f00d07b75f0b31d9b4cec2cf"],"id":"20241029","objects":[],"time":11303000,"distance":20237.156892987343,"uphill":233,"pointCount":102,"tags":[],"categories":["all"]}]},"__N_SSG":true}