{"pageProps":{"siteDescription":"Description of local dev version","siteTitle":"Local dev version","currentPage":1,"pages":596,"categories":[{"id":"all","title":"All","count":1192},{"id":"with-pictures","title":"With pictures or videos","count":53},{"id":"office A","title":"office A","count":18},{"id":"miyata","title":"miyata","count":17},{"id":"office B","title":"office B","count":32},{"id":"recumbent","title":"recumbent","count":122},{"id":"tandem","title":"tandem","count":90},{"id":"wife","title":"wife","count":15},{"id":"son","title":"son","count":2},{"id":"grocery store","title":"grocery store","count":10},{"id":"just for fun","title":"just for fun","count":2},{"id":"Los Angeles","title":"Los Angeles","count":6},{"id":"school","title":"school","count":52},{"id":"horse camp","title":"horse camp","count":2},{"id":"yasha's heaven","title":"yasha's heaven","count":1},{"id":"seattle","title":"seattle","count":14},{"id":"walk","title":"walk","count":1},{"id":"office C","title":"office C","count":9},{"id":"with the kid","title":"with the kid","count":6},{"id":"ToTheEastCoast","title":"ToTheEastCoast","count":38}],"category":"all","index":[{"title":"Daily ride 2024-10-24 #1192","gpx":["track.gpx"],"date":"2024-10-24","hash":["c66a11d66eb6da0faad3e785b214c17fbd1c63bebd44eb4cb74079f669dd680f"],"id":"20241024","objects":[],"time":3286000,"distance":10597.236954070655,"uphill":45,"pointCount":41,"tags":[],"categories":["all"]},{"title":"Daily ride 2024-10-23 #1191","gpx":["track.gpx"],"date":"2024-10-23","hash":["bcde056a98c05b6c5ed6af9f0bb341f88ee6756bc30ed376338ed740466ea418"],"id":"20241023","objects":[],"time":10130000,"distance":20678.767921706218,"uphill":221,"pointCount":104,"tags":[],"categories":["all"]}]},"__N_SSG":true}