{"pageProps":{"siteDescription":"Description of local dev version","siteTitle":"Local dev version","currentPage":1,"pages":278,"categories":[{"id":"all","title":"All","count":556},{"id":"with-pictures","title":"With pictures or videos","count":41},{"id":"office A","title":"office A","count":18},{"id":"miyata","title":"miyata","count":17},{"id":"office B","title":"office B","count":32},{"id":"recumbent","title":"recumbent","count":108},{"id":"tandem","title":"tandem","count":86},{"id":"wife","title":"wife","count":14},{"id":"son","title":"son","count":2},{"id":"grocery store","title":"grocery store","count":10},{"id":"just for fun","title":"just for fun","count":2},{"id":"Los Angeles","title":"Los Angeles","count":6},{"id":"school","title":"school","count":52},{"id":"horse camp","title":"horse camp","count":2},{"id":"yasha's heaven","title":"yasha's heaven","count":1},{"id":"seattle","title":"seattle","count":14},{"id":"walk","title":"walk","count":1},{"id":"office C","title":"office C","count":9},{"id":"with the kid","title":"with the kid","count":4},{"id":"ToTheEastCost","title":"ToTheEastCost","count":24}],"category":"all","index":[{"title":"Daily ride 2022-05-29 #556","gpx":["track.gpx"],"date":"2022-05-29","hash":["59d026fbe4ef5a63b905a1128036bd4172a5097fa7737f878467d153a0cebc6e"],"id":"20220529","objects":[{"type":"image","img":"20220529-photo0","lat":41.9120332589981,"lng":-86.58488579853812}],"time":42450000,"distance":142473.51233336475,"uphill":678,"pointCount":374,"tags":[],"categories":["all","with-pictures"]},{"title":"Daily ride 2022-05-28 #555","gpx":["track.gpx"],"date":"2022-05-28","hash":["eec5e43ee194f23908845b027a4b2f2e87b7058aa2ef5e42fe7f8ffa7826d121"],"id":"20220528","objects":[{"type":"image","img":"20220528-photo0","lat":41.82951453173585,"lng":-87.60370411283313},{"type":"image","img":"20220528-photo1","lat":41.82951453173585,"lng":-87.60370411283313},{"type":"image","img":"20220528-photo10","lat":41.65854730497417,"lng":-87.4641253542927},{"type":"image","img":"20220528-photo11","lat":41.609605821340864,"lng":-87.2234114411322},{"type":"image","img":"20220528-photo12","lat":41.61240544839076,"lng":-87.21132057809503},{"type":"image","img":"20220528-photo13","lat":41.63764189941611,"lng":-87.07752356318186},{"type":"image","img":"20220528-photo14","lat":41.800273551146326,"lng":-86.72091142057462},{"type":"image","img":"20220528-photo15","lat":41.816216799284504,"lng":-86.70659860196464},{"type":"image","img":"20220528-photo16","lat":41.81921002804831,"lng":-86.70295291255},{"type":"image","img":"20220528-photo17","lat":41.832315018268154,"lng":-86.68711705558472},{"type":"image","img":"20220528-photo18","lat":41.83910420157116,"lng":-86.67868818930322},{"type":"image","img":"20220528-photo19","lat":41.85226658799759,"lng":-86.66234508710252},{"type":"image","img":"20220528-photo2","lat":41.79533621030005,"lng":-87.57870496354596},{"type":"image","img":"20220528-photo20","lat":41.88341500823633,"lng":-86.61124024037079},{"type":"image","img":"20220528-photo21","lat":41.89531310536788,"lng":-86.60099620115945},{"type":"image","img":"20220528-photo3","lat":41.75920346484183,"lng":-87.55585655197535},{"type":"image","img":"20220528-photo4","lat":41.753473773576204,"lng":-87.54965818764533},{"type":"image","img":"20220528-photo5","lat":41.74825443618858,"lng":-87.54072045586467},{"type":"image","img":"20220528-photo6","lat":41.72287742791383,"lng":-87.53659919326489},{"type":"image","img":"20220528-photo7","lat":41.71593496227746,"lng":-87.53516301174105},{"type":"image","img":"20220528-photo8","lat":41.70456713166561,"lng":-87.52036863154446},{"type":"image","img":"20220528-photo9","lat":41.68636409487244,"lng":-87.50002082437636}],"time":45407000,"distance":150264.30081653147,"uphill":377,"pointCount":435,"tags":[],"categories":["all","with-pictures"]}]},"__N_SSG":true}