{"pageProps":{"siteDescription":"Description of local dev version","siteTitle":"Local dev version","currentPage":1,"pages":268,"categories":[{"id":"all","title":"All","count":535},{"id":"with-pictures","title":"With pictures or videos","count":19},{"id":"office A","title":"office A","count":18},{"id":"miyata","title":"miyata","count":17},{"id":"office B","title":"office B","count":32},{"id":"recumbent","title":"recumbent","count":87},{"id":"tandem","title":"tandem","count":86},{"id":"wife","title":"wife","count":14},{"id":"son","title":"son","count":2},{"id":"grocery store","title":"grocery store","count":10},{"id":"just for fun","title":"just for fun","count":2},{"id":"Los Angeles","title":"Los Angeles","count":6},{"id":"school","title":"school","count":52},{"id":"horse camp","title":"horse camp","count":2},{"id":"yasha's heaven","title":"yasha's heaven","count":1},{"id":"seattle","title":"seattle","count":14},{"id":"walk","title":"walk","count":1},{"id":"office C","title":"office C","count":9},{"id":"with the kid","title":"with the kid","count":4},{"id":"ToTheEastCost","title":"ToTheEastCost","count":1},{"id":"ToTheEastCoat","title":"ToTheEastCoat","count":2}],"category":"all","index":[{"title":"Daily ride 2022-05-08 #535","gpx":["track.gpx"],"date":"2022-05-08","hash":["7ae2ae62472fda4b22016f807258161fab7de1d49792fd9072595255311cf014"],"id":"20220508","objects":[],"time":4963000,"distance":30306.695051790393,"uphill":0,"pointCount":51,"tags":[],"categories":["all"]},{"title":"Daily ride 2022-05-07 #534","gpx":["track.gpx"],"date":"2022-05-07","hash":["3c178e035a24702c6b44f2294fcab3fe46ac417fd28100de996524f7c7def902"],"id":"20220507","objects":[{"type":"image","img":"20220507-photo0","lat":39.29035128522538,"lng":-118.04749563294928},{"type":"image","img":"20220507-photo1","lat":39.50753531088604,"lng":-117.77122632964887},{"type":"image","img":"20220507-photo2","lat":39.57651742951474,"lng":-117.5949949405155},{"type":"image","img":"20220507-photo3","lat":39.504353815912616,"lng":-117.38210505257143},{"type":"image","img":"20220507-photo4","lat":39.479690237031456,"lng":-117.28135818944847},{"type":"image","img":"20220507-photo5","lat":39.49061618523367,"lng":-117.06884157482781},{"type":"image","img":"20220507-photo6","lat":39.49061618523367,"lng":-117.06884157482781},{"type":"image","img":"20220507-photo7","lat":39.490303297910806,"lng":-117.06842473457823}],"time":44924000,"distance":156545.91662921186,"uphill":1429,"pointCount":425,"tags":[],"categories":["all","with-pictures"]}]},"__N_SSG":true}