{"pageProps":{"siteDescription":"Description of local dev version","siteTitle":"Local dev version","currentPage":1,"pages":622,"categories":[{"id":"all","title":"All","count":1243},{"id":"with-pictures","title":"With pictures or videos","count":53},{"id":"office A","title":"office A","count":18},{"id":"miyata","title":"miyata","count":17},{"id":"office B","title":"office B","count":32},{"id":"recumbent","title":"recumbent","count":122},{"id":"tandem","title":"tandem","count":90},{"id":"wife","title":"wife","count":15},{"id":"son","title":"son","count":2},{"id":"grocery store","title":"grocery store","count":10},{"id":"just for fun","title":"just for fun","count":2},{"id":"Los Angeles","title":"Los Angeles","count":6},{"id":"school","title":"school","count":52},{"id":"horse camp","title":"horse camp","count":2},{"id":"yasha's heaven","title":"yasha's heaven","count":1},{"id":"seattle","title":"seattle","count":14},{"id":"walk","title":"walk","count":1},{"id":"office C","title":"office C","count":9},{"id":"with the kid","title":"with the kid","count":6},{"id":"ToTheEastCoast","title":"ToTheEastCoast","count":38}],"category":"all","index":[{"title":"Daily ride 2025-01-03 #1243","gpx":["track.gpx"],"date":"2025-01-03","hash":["22adb5668649ab1596ad3d3c188d4c782d49ffd8cc468b39e61d6e4e9bf7a2fe"],"id":"20250103","objects":[],"time":1637000,"distance":217.85425612139306,"uphill":0,"pointCount":7,"tags":[],"categories":["all"]},{"title":"Daily ride 2025-01-02 #1242","gpx":["track.gpx"],"date":"2025-01-02","hash":["9e34f9fa6a2794d44e11cc41c44a7a8f929c59a4b570fcd225c686d44de49448"],"id":"20250102","objects":[],"time":4703000,"distance":18576.562266029207,"uphill":44,"pointCount":75,"tags":[],"categories":["all"]}]},"__N_SSG":true}